<?xml version="1.0" encoding="UTF-8" standalone="no"?>
<svg
   xmlns:dc="http://purl.org/dc/elements/1.1/"
   xmlns:cc="http://creativecommons.org/ns#"
   xmlns:rdf="http://www.w3.org/1999/02/22-rdf-syntax-ns#"
   xmlns:svg="http://www.w3.org/2000/svg"
   xmlns="http://www.w3.org/2000/svg"
   xmlns:sodipodi="http://sodipodi.sourceforge.net/DTD/sodipodi-0.dtd"
   xmlns:inkscape="http://www.inkscape.org/namespaces/inkscape"
   version="1.1"
   width="32"
   height="32"
   data-icon="people"
   data-container-transform="translate(0 8)"
   viewBox="0 0 32 32"
   id="svg2"
   inkscape:version="0.92.2 2405546, 2018-03-11"
   sodipodi:docname="object-actions.svg"
   inkscape:export-filename="readonly-url.png"
   inkscape:export-xdpi="1800"
   inkscape:export-ydpi="1800">
  <metadata
     id="metadata10">
    <rdf:RDF>
      <cc:Work
         rdf:about="">
        <dc:format>image/svg+xml</dc:format>
        <dc:type
           rdf:resource="http://purl.org/dc/dcmitype/StillImage" />
        <dc:title></dc:title>
      </cc:Work>
    </rdf:RDF>
  </metadata>
  <defs
     id="defs8" />
  <sodipodi:namedview
     pagecolor="#ffffff"
     bordercolor="#666666"
     borderopacity="1"
     objecttolerance="10"
     gridtolerance="10"
     guidetolerance="10"
     inkscape:pageopacity="0"
     inkscape:pageshadow="2"
     inkscape:window-width="1920"
     inkscape:window-height="1152"
     id="namedview6"
     showgrid="false"
     inkscape:zoom="11.313708"
     inkscape:cx="15.33953"
     inkscape:cy="4.8146059"
     inkscape:window-x="0"
     inkscape:window-y="20"
     inkscape:window-maximized="1"
     inkscape:current-layer="svg2"
     showguides="true"
     inkscape:snap-others="false"
     inkscape:snap-object-midpoints="false"
     inkscape:snap-center="false"
     inkscape:object-nodes="false"
     inkscape:snap-nodes="false" />
  <circle
     style="opacity:1;fill:#6aa3ae;fill-opacity:1;stroke:none;stroke-width:0.99437296;stroke-miterlimit:4;stroke-dasharray:5.96623791, 5.96623791;stroke-dashoffset:0;stroke-opacity:1"
     id="path1091"
     cx="8.060894"
     cy="-16"
     r="2.2806044"
     transform="rotate(90)" />
  <circle
     r="2.2806044"
     cy="-16"
     cx="16"
     id="circle1093"
     style="opacity:1;fill:#6aa3ae;fill-opacity:1;stroke:none;stroke-width:0.99437296;stroke-miterlimit:4;stroke-dasharray:5.96623791, 5.96623791;stroke-dashoffset:0;stroke-opacity:1"
     transform="rotate(90)" />
  <circle
     style="opacity:1;fill:#6aa3ae;fill-opacity:1;stroke:none;stroke-width:0.99437296;stroke-miterlimit:4;stroke-dasharray:5.96623791, 5.96623791;stroke-dashoffset:0;stroke-opacity:1"
     id="circle1095"
     cx="23.939106"
     cy="-16"
     r="2.2806044"
     transform="rotate(90)" />
</svg>
