<?xml version="1.0" encoding="UTF-8" standalone="no"?>
<svg
   xmlns:dc="http://purl.org/dc/elements/1.1/"
   xmlns:cc="http://creativecommons.org/ns#"
   xmlns:rdf="http://www.w3.org/1999/02/22-rdf-syntax-ns#"
   xmlns:svg="http://www.w3.org/2000/svg"
   xmlns="http://www.w3.org/2000/svg"
   xmlns:sodipodi="http://sodipodi.sourceforge.net/DTD/sodipodi-0.dtd"
   xmlns:inkscape="http://www.inkscape.org/namespaces/inkscape"
   version="1.1"
   id="Sprocket"
   x="0px"
   y="0px"
   width="100px"
   height="100px"
   viewBox="0 0 100 100"
   enable-background="new 0 0 100 100"
   xml:space="preserve"
   inkscape:version="0.91 r13725"
   sodipodi:docname="search.svg"
   inkscape:export-filename="C:\Users\wilkie\occam\benchmark_large.png"
   inkscape:export-xdpi="86.400002"
   inkscape:export-ydpi="86.400002"><metadata
     id="metadata11"><rdf:RDF><cc:Work
         rdf:about=""><dc:format>image/svg+xml</dc:format><dc:type
           rdf:resource="http://purl.org/dc/dcmitype/StillImage" /><dc:title></dc:title></cc:Work></rdf:RDF></metadata><defs
     id="defs9" /><sodipodi:namedview
     pagecolor="#ffffff"
     bordercolor="#666666"
     borderopacity="1"
     objecttolerance="10"
     gridtolerance="10"
     guidetolerance="10"
     inkscape:pageopacity="0"
     inkscape:pageshadow="2"
     inkscape:window-width="1920"
     inkscape:window-height="1176"
     id="namedview7"
     showgrid="false"
     inkscape:zoom="5.6568542"
     inkscape:cx="70.220545"
     inkscape:cy="36.081766"
     inkscape:window-x="1920"
     inkscape:window-y="24"
     inkscape:window-maximized="1"
     inkscape:current-layer="Sprocket" /><path
     fill-rule="evenodd"
     clip-rule="evenodd"
     d="M-119.521,229.871c-0.031,0.281-0.067,0.611-0.131,1.193  c-0.668-0.392-1.189-0.696-1.725-1.01c-0.134,0.242-0.267,0.48-0.51,0.919c-0.109-0.422-0.274-0.693-0.199-0.851  c0.122-0.255,0.369-0.516,0.625-0.618c0.167-0.066,0.437,0.181,0.672,0.226C-120.424,229.8-120.051,229.815-119.521,229.871z"
     id="path3" /><path
     inkscape:connector-curvature="0"
     d="M 55.850094,50.776269 C 43.595186,55.76409 29.568481,49.850694 24.580663,37.595784 19.595265,25.341897 25.50819,11.314044 37.761612,6.3275003 50.016178,1.3404894 64.044034,7.2534177 69.029431,19.507303 74.017588,31.761404 68.105467,45.789596 55.850094,50.776269 Z M 39.999314,11.824551 C 30.775057,15.579043 26.325306,26.135654 30.07933,35.358763 33.831866,44.583149 44.390093,49.033582 53.613543,45.278748 62.837119,41.525872 67.287551,30.967649 63.532721,21.744197 59.779502,12.521428 49.22289,8.0716743 39.999314,11.824551 Z"
     id="path97"
     style="fill:#64c4d9;fill-opacity:1;fill-rule:evenodd" /><path
     inkscape:connector-curvature="0"
     d="m 61.271916,54.413931 c 0.4198,1.032975 -0.07667,2.210786 -1.108949,2.630873 l -3.021742,1.230848 c -1.032398,0.418418 -2.211187,-0.07764 -2.630879,-1.108949 l 0,0 c -0.420489,-1.033268 0.07627,-2.21177 1.109242,-2.631567 l 3.020759,-1.230448 c 1.033673,-0.419509 2.211188,0.07764 2.631569,1.109243 l 0,0 z"
     id="path101"
     style="fill:#64c4d9;fill-opacity:1;fill-rule:evenodd" /><path
     inkscape:connector-curvature="0"
     d="M 67.193885,71.750914 C 65.701164,68.082855 64.9323,62.484957 64.245537,60.794555 c -0.689022,-1.68891 -2.498982,-3.04885 -2.498982,-3.04885 l -2.589165,1.054808 -0.07178,0.0292 -2.590257,1.053536 c 0,0 -0.346045,2.237329 0.341996,3.926641 0.687744,1.69 4.044497,6.234181 5.53791,9.902532 2.341996,5.753568 3.642664,15.954322 4.797531,18.794985 0.380482,0.934954 2.483956,4.145334 6.655077,2.44847 l -0.05761,-0.141539 0.05831,0.141839 c 4.172,-1.698952 3.436172,-5.464171 3.054999,-6.39942 -1.156348,-2.84292 -7.347688,-11.052261 -9.689682,-16.805829 z"
     id="path103"
     style="fill:#64c4d9;fill-opacity:1;fill-rule:evenodd" /></svg>