<?xml version="1.0" encoding="UTF-8" standalone="no"?>
<!-- Created with Inkscape (http://www.inkscape.org/) -->

<svg
   xmlns:dc="http://purl.org/dc/elements/1.1/"
   xmlns:cc="http://creativecommons.org/ns#"
   xmlns:rdf="http://www.w3.org/1999/02/22-rdf-syntax-ns#"
   xmlns:svg="http://www.w3.org/2000/svg"
   xmlns="http://www.w3.org/2000/svg"
   xmlns:sodipodi="http://sodipodi.sourceforge.net/DTD/sodipodi-0.dtd"
   xmlns:inkscape="http://www.inkscape.org/namespaces/inkscape"
   width="45.735195mm"
   height="45.734676mm"
   viewBox="0 0 45.735195 45.734676"
   version="1.1"
   id="svg8"
   inkscape:version="0.92.2 2405546, 2018-03-11"
   sodipodi:docname="text-x-R.svg">
  <defs
     id="defs2">
    <mask
       maskUnits="userSpaceOnUse"
       id="mask1609">
      <circle
         id="circle1611"
         cx="26.269337"
         cy="23.912203"
         r="18.178783"
         style="fill:#ffffff;stroke-width:0.18852071" />
    </mask>
    <linearGradient
       gradientTransform="matrix(0.03259555,0,0,0.02183016,13.02921,16.551278)"
       id="gradientFill-1"
       x1="0.74144253"
       x2="590.86259"
       y1="3.6658269"
       y2="593.78698"
       gradientUnits="userSpaceOnUse"
       spreadMethod="pad">
      <stop
         offset="0"
         stop-color="rgb(203,206,208)"
         stop-opacity="1"
         id="stop1689" />
      <stop
         offset="1"
         stop-color="rgb(132,131,139)"
         stop-opacity="1"
         id="stop1691" />
    </linearGradient>
    <linearGradient
       gradientTransform="matrix(0.02640705,0,0,0.02694607,13.02921,16.551278)"
       id="gradientFill-2"
       x1="301.02603"
       x2="703.06751"
       y1="151.40061"
       y2="553.44209"
       gradientUnits="userSpaceOnUse"
       spreadMethod="pad">
      <stop
         offset="0"
         stop-color="rgb(39,109,195)"
         stop-opacity="1"
         id="stop1694" />
      <stop
         offset="1"
         stop-color="rgb(22,92,170)"
         stop-opacity="1"
         id="stop1696" />
    </linearGradient>
  </defs>
  <sodipodi:namedview
     id="base"
     pagecolor="#ffffff"
     bordercolor="#666666"
     borderopacity="1.0"
     inkscape:pageopacity="0.0"
     inkscape:pageshadow="2"
     inkscape:zoom="1.979899"
     inkscape:cx="198.77787"
     inkscape:cy="3.8728741"
     inkscape:document-units="mm"
     inkscape:current-layer="layer1"
     showgrid="false"
     fit-margin-top="0"
     fit-margin-left="0"
     fit-margin-right="0"
     fit-margin-bottom="0"
     inkscape:window-width="1920"
     inkscape:window-height="1152"
     inkscape:window-x="0"
     inkscape:window-y="20"
     inkscape:window-maximized="1" />
  <metadata
     id="metadata5">
    <rdf:RDF>
      <cc:Work
         rdf:about="">
        <dc:format>image/svg+xml</dc:format>
        <dc:type
           rdf:resource="http://purl.org/dc/dcmitype/StillImage" />
        <dc:title></dc:title>
      </cc:Work>
    </rdf:RDF>
  </metadata>
  <g
     inkscape:label="Layer 1"
     inkscape:groupmode="layer"
     id="layer1"
     transform="translate(-3.4015623,-1.0448973)">
    <path
       inkscape:connector-curvature="0"
       style="fill:#2da0b7;fill-opacity:1;fill-rule:evenodd;stroke-width:0.05966256"
       d="m 26.269162,37.19544 c -11.880247,0 -21.5111584,-6.45006 -21.5111584,-14.406599 0,-7.956601 9.6309114,-14.4066617 21.5111584,-14.4066617 11.880311,0 21.511154,6.4500607 21.511154,14.4066617 0,7.956539 -9.630843,14.406599 -21.511154,14.406599 z m 3.292657,-23.180756 c -9.030045,0 -16.350345,4.409542 -16.350345,9.848979 0,5.439432 7.3203,9.848975 16.350345,9.848975 9.029992,0 15.694,-3.01469 15.694,-9.848975 0,-6.832142 -6.664008,-9.848979 -15.694,-9.848979 z"
       id="path1701" />
    <path
       inkscape:connector-curvature="0"
       style="fill:#2da0b7;fill-opacity:1;fill-rule:evenodd;stroke-width:0.05966256"
       d="m 37.518359,30.69598 c 0,0 1.301959,0.392877 2.058361,0.775614 0.262455,0.132811 0.716548,0.39783 1.044095,0.74578 0.320867,0.340793 0.477299,0.686121 0.477299,0.686121 l 5.130988,8.651064 -8.293103,0.0044 -3.878066,-7.282541 c 0,0 -0.794107,-1.364421 -1.282746,-1.760042 -0.407615,-0.329995 -0.581412,-0.447472 -0.984432,-0.447472 -0.280534,0 -1.970417,0 -1.970417,0 l 0.0016,9.484798 -7.338497,0.0022 V 17.327863 h 14.736655 c 0,0 6.712039,0.121047 6.712039,6.50692 0,6.385865 -6.413729,6.861195 -6.413729,6.861195 z m -3.191946,-8.112677 -4.44265,-0.0029 -0.0022,4.119702 4.44486,-0.0014 c 0,0 2.05836,-0.0065 2.05836,-2.095647 0,-2.131267 -2.05836,-2.019758 -2.05836,-2.019758 z"
       id="path1703" />
  </g>
</svg>
