<?xml version="1.0" encoding="UTF-8" standalone="no"?>
<!-- Created with Inkscape (http://www.inkscape.org/) -->

<svg
   xmlns:dc="http://purl.org/dc/elements/1.1/"
   xmlns:cc="http://creativecommons.org/ns#"
   xmlns:rdf="http://www.w3.org/1999/02/22-rdf-syntax-ns#"
   xmlns:svg="http://www.w3.org/2000/svg"
   xmlns="http://www.w3.org/2000/svg"
   xmlns:sodipodi="http://sodipodi.sourceforge.net/DTD/sodipodi-0.dtd"
   xmlns:inkscape="http://www.inkscape.org/namespaces/inkscape"
   width="45.735195mm"
   height="45.734676mm"
   viewBox="0 0 45.735195 45.734676"
   version="1.1"
   id="svg8"
   inkscape:version="0.92.2 2405546, 2018-03-11"
   sodipodi:docname="text-x-ruby.svg">
  <defs
     id="defs2">
    <mask
       maskUnits="userSpaceOnUse"
       id="mask1609">
      <circle
         id="circle1611"
         cx="26.269337"
         cy="23.912203"
         r="18.178783"
         style="fill:#ffffff;stroke-width:0.18852071" />
    </mask>
    <linearGradient
       gradientTransform="matrix(0.03259555,0,0,0.02183016,13.02921,16.551278)"
       id="gradientFill-1"
       x1="0.74144253"
       x2="590.86259"
       y1="3.6658269"
       y2="593.78698"
       gradientUnits="userSpaceOnUse"
       spreadMethod="pad">
      <stop
         offset="0"
         stop-color="rgb(203,206,208)"
         stop-opacity="1"
         id="stop1689" />
      <stop
         offset="1"
         stop-color="rgb(132,131,139)"
         stop-opacity="1"
         id="stop1691" />
    </linearGradient>
    <linearGradient
       gradientTransform="matrix(0.02640705,0,0,0.02694607,13.02921,16.551278)"
       id="gradientFill-2"
       x1="301.02603"
       x2="703.06751"
       y1="151.40061"
       y2="553.44209"
       gradientUnits="userSpaceOnUse"
       spreadMethod="pad">
      <stop
         offset="0"
         stop-color="rgb(39,109,195)"
         stop-opacity="1"
         id="stop1694" />
      <stop
         offset="1"
         stop-color="rgb(22,92,170)"
         stop-opacity="1"
         id="stop1696" />
    </linearGradient>
    <linearGradient
       id="XMLID_32_-0"
       gradientUnits="userSpaceOnUse"
       x1="154.6411"
       y1="9.7979002"
       x2="192.039"
       y2="26.305901"
       gradientTransform="matrix(0.20118219,0,0,0.20118219,6.3390462,4.0374469)">
      <stop
         offset="0"
         style="stop-color:#B31000"
         id="stop3475-2" />
      <stop
         offset="0"
         style="stop-color:#B31000"
         id="stop3477-2" />
      <stop
         offset="0.44"
         style="stop-color:#910F08"
         id="stop3479-9" />
      <stop
         offset="0.99"
         style="stop-color:#791C12"
         id="stop3481-7" />
      <stop
         offset="1"
         style="stop-color:#791C12"
         id="stop3483-5" />
    </linearGradient>
    <linearGradient
       id="XMLID_31_-6"
       gradientUnits="userSpaceOnUse"
       x1="26.669901"
       y1="197.33591"
       x2="9.9886999"
       y2="140.742"
       gradientTransform="matrix(0.20118219,0,0,0.20118219,6.3390462,4.0374469)">
      <stop
         offset="0"
         style="stop-color:#8B2114"
         id="stop3462-4" />
      <stop
         offset="0"
         style="stop-color:#8B2114"
         id="stop3464-8" />
      <stop
         offset="0.43"
         style="stop-color:#9E100A"
         id="stop3466-0" />
      <stop
         offset="0.99"
         style="stop-color:#B3100C"
         id="stop3468-8" />
      <stop
         offset="1"
         style="stop-color:#B3100C"
         id="stop3470-1" />
    </linearGradient>
    <radialGradient
       id="XMLID_30_-6"
       cx="74.0923"
       cy="145.75101"
       r="66.943703"
       gradientUnits="userSpaceOnUse"
       gradientTransform="matrix(0.20118219,0,0,0.20118219,6.3390462,4.0374469)">
      <stop
         offset="0"
         style="stop-color:#A30C00"
         id="stop3451-6" />
      <stop
         offset="0"
         style="stop-color:#A30C00"
         id="stop3453-2" />
      <stop
         offset="0.99"
         style="stop-color:#800E08"
         id="stop3455-1" />
      <stop
         offset="1"
         style="stop-color:#800E08"
         id="stop3457-9" />
    </radialGradient>
    <radialGradient
       id="XMLID_29_-4"
       cx="143.8315"
       cy="79.388199"
       r="50.357601"
       gradientUnits="userSpaceOnUse"
       gradientTransform="matrix(0.20118219,0,0,0.20118219,6.3390462,4.0374469)">
      <stop
         offset="0"
         style="stop-color:#A80D00"
         id="stop3440-0" />
      <stop
         offset="0"
         style="stop-color:#A80D00"
         id="stop3442-8" />
      <stop
         offset="0.99"
         style="stop-color:#7E0E08"
         id="stop3444-5" />
      <stop
         offset="1"
         style="stop-color:#7E0E08"
         id="stop3446-1" />
    </radialGradient>
    <linearGradient
       id="XMLID_28_-1"
       gradientUnits="userSpaceOnUse"
       x1="193.6235"
       y1="47.937"
       x2="173.15421"
       y2="26.053801"
       gradientTransform="matrix(0.20118219,0,0,0.20118219,6.3390462,4.0374469)">
      <stop
         offset="0"
         style="stop-color:#79130D"
         id="stop3427-1" />
      <stop
         offset="0"
         style="stop-color:#79130D"
         id="stop3429-1" />
      <stop
         offset="0.99"
         style="stop-color:#9E120B"
         id="stop3431-7" />
      <stop
         offset="1"
         style="stop-color:#9E120B"
         id="stop3433-0" />
    </linearGradient>
    <linearGradient
       id="XMLID_27_-1"
       gradientUnits="userSpaceOnUse"
       x1="178.52589"
       y1="115.5146"
       x2="137.43269"
       y2="78.683998"
       gradientTransform="matrix(0.20118219,0,0,0.20118219,6.3390462,4.0374469)">
      <stop
         offset="0"
         style="stop-color:#7E110B"
         id="stop3416-7" />
      <stop
         offset="0"
         style="stop-color:#7E110B"
         id="stop3418-4" />
      <stop
         offset="0.99"
         style="stop-color:#9E0C00"
         id="stop3420-1" />
      <stop
         offset="1"
         style="stop-color:#9E0C00"
         id="stop3422-7" />
    </linearGradient>
    <linearGradient
       id="XMLID_26_-2"
       gradientUnits="userSpaceOnUse"
       x1="99.074699"
       y1="171.0332"
       x2="52.817699"
       y2="159.61659"
       gradientTransform="matrix(0.20118219,0,0,0.20118219,6.3390462,4.0374469)">
      <stop
         offset="0"
         style="stop-color:#8C0C01"
         id="stop3403-0" />
      <stop
         offset="0"
         style="stop-color:#8C0C01"
         id="stop3405-2" />
      <stop
         offset="0.54"
         style="stop-color:#990C00"
         id="stop3407-1" />
      <stop
         offset="0.99"
         style="stop-color:#A80D0E"
         id="stop3409-7" />
      <stop
         offset="1"
         style="stop-color:#A80D0E"
         id="stop3411-5" />
    </linearGradient>
    <linearGradient
       id="XMLID_25_-9"
       gradientUnits="userSpaceOnUse"
       x1="-18.5557"
       y1="155.10451"
       x2="135.0152"
       y2="-2.8092999"
       gradientTransform="matrix(0.26458333,0,0,0.26458333,27.036382,44.29474)">
      <stop
         offset="0"
         style="stop-color:#BD0012"
         id="stop3380-7" />
      <stop
         offset="0"
         style="stop-color:#BD0012"
         id="stop3382-9" />
      <stop
         offset="0.07"
         style="stop-color:#FFFFFF"
         id="stop3384-9" />
      <stop
         offset="0.17"
         style="stop-color:#FFFFFF"
         id="stop3386-3" />
      <stop
         offset="0.27"
         style="stop-color:#C82F1C"
         id="stop3388-2" />
      <stop
         offset="0.33"
         style="stop-color:#820C01"
         id="stop3390-4" />
      <stop
         offset="0.46"
         style="stop-color:#A31601"
         id="stop3392-3" />
      <stop
         offset="0.72"
         style="stop-color:#B31301"
         id="stop3394-7" />
      <stop
         offset="0.99"
         style="stop-color:#E82609"
         id="stop3396-1" />
      <stop
         offset="1"
         style="stop-color:#E82609"
         id="stop3398-2" />
    </linearGradient>
    <linearGradient
       id="XMLID_24_-3"
       gradientUnits="userSpaceOnUse"
       x1="3.9033"
       y1="113.5547"
       x2="7.1701999"
       y2="146.2628">
      <stop
         offset="0"
         style="stop-color:#FFFFFF"
         id="stop3365-7" />
      <stop
         offset="0"
         style="stop-color:#FFFFFF"
         id="stop3367-1" />
      <stop
         offset="0.31"
         style="stop-color:#DE4024"
         id="stop3369-3" />
      <stop
         offset="0.99"
         style="stop-color:#BF190B"
         id="stop3371-8" />
      <stop
         offset="1"
         style="stop-color:#BF190B"
         id="stop3373-0" />
    </linearGradient>
    <linearGradient
       id="XMLID_23_-9"
       gradientUnits="userSpaceOnUse"
       x1="118.9761"
       y1="11.5415"
       x2="158.66859"
       y2="-8.3048">
      <stop
         offset="0"
         style="stop-color:#FFFFFF"
         id="stop3352-8" />
      <stop
         offset="0"
         style="stop-color:#FFFFFF"
         id="stop3354-8" />
      <stop
         offset="0.54"
         style="stop-color:#C81F11"
         id="stop3356-5" />
      <stop
         offset="0.99"
         style="stop-color:#BF0905"
         id="stop3358-8" />
      <stop
         offset="1"
         style="stop-color:#BF0905"
         id="stop3360-4" />
    </linearGradient>
    <linearGradient
       id="XMLID_22_-7"
       gradientUnits="userSpaceOnUse"
       x1="147.103"
       y1="25.521"
       x2="156.3141"
       y2="65.216202">
      <stop
         offset="0"
         style="stop-color:#FFFFFF"
         id="stop3337-8" />
      <stop
         offset="0"
         style="stop-color:#FFFFFF"
         id="stop3339-7" />
      <stop
         offset="0.18"
         style="stop-color:#E46342"
         id="stop3341-4" />
      <stop
         offset="0.4"
         style="stop-color:#C82410"
         id="stop3343-1" />
      <stop
         offset="0.99"
         style="stop-color:#A80D00"
         id="stop3345-9" />
      <stop
         offset="1"
         style="stop-color:#A80D00"
         id="stop3347-0" />
    </linearGradient>
    <linearGradient
       id="XMLID_21_-3"
       gradientUnits="userSpaceOnUse"
       x1="96.132797"
       y1="76.715302"
       x2="99.209602"
       y2="132.1021">
      <stop
         offset="0"
         style="stop-color:#FFFFFF"
         id="stop3322-3" />
      <stop
         offset="0"
         style="stop-color:#FFFFFF"
         id="stop3324-8" />
      <stop
         offset="0.23"
         style="stop-color:#E4714E"
         id="stop3326-3" />
      <stop
         offset="0.56"
         style="stop-color:#BE1A0D"
         id="stop3328-7" />
      <stop
         offset="0.99"
         style="stop-color:#A80D00"
         id="stop3330-9" />
      <stop
         offset="1"
         style="stop-color:#A80D00"
         id="stop3332-3" />
    </linearGradient>
    <linearGradient
       id="XMLID_20_-9"
       gradientUnits="userSpaceOnUse"
       x1="38.696301"
       y1="127.3906"
       x2="47.046902"
       y2="181.66141">
      <stop
         offset="0"
         style="stop-color:#FFFFFF"
         id="stop3307-7" />
      <stop
         offset="0"
         style="stop-color:#FFFFFF"
         id="stop3309-5" />
      <stop
         offset="0.23"
         style="stop-color:#E57252"
         id="stop3311-9" />
      <stop
         offset="0.46"
         style="stop-color:#DE3B20"
         id="stop3313-7" />
      <stop
         offset="0.99"
         style="stop-color:#A60003"
         id="stop3315-8" />
      <stop
         offset="1"
         style="stop-color:#A60003"
         id="stop3317-5" />
    </linearGradient>
    <linearGradient
       id="XMLID_19_-4"
       gradientUnits="userSpaceOnUse"
       x1="151.79539"
       y1="217.7852"
       x2="97.929703"
       y2="181.638">
      <stop
         offset="0"
         style="stop-color:#871101"
         id="stop3296-6" />
      <stop
         offset="0"
         style="stop-color:#871101"
         id="stop3298-7" />
      <stop
         offset="0.99"
         style="stop-color:#911209"
         id="stop3300-6" />
      <stop
         offset="1"
         style="stop-color:#911209"
         id="stop3302-0" />
    </linearGradient>
    <linearGradient
       id="XMLID_18_-7"
       gradientUnits="userSpaceOnUse"
       x1="194.895"
       y1="153.5576"
       x2="141.0276"
       y2="117.4093">
      <stop
         offset="0"
         style="stop-color:#871101"
         id="stop3285-8" />
      <stop
         offset="0"
         style="stop-color:#871101"
         id="stop3287-8" />
      <stop
         offset="0.99"
         style="stop-color:#911209"
         id="stop3289-6" />
      <stop
         offset="1"
         style="stop-color:#911209"
         id="stop3291-0" />
    </linearGradient>
    <linearGradient
       id="XMLID_17_-9"
       gradientUnits="userSpaceOnUse"
       x1="174.0737"
       y1="215.5488"
       x2="132.27631"
       y2="141.7533">
      <stop
         offset="0"
         style="stop-color:#FB7655"
         id="stop3272-4" />
      <stop
         offset="0"
         style="stop-color:#FB7655"
         id="stop3274-5" />
      <stop
         offset="0.41"
         style="stop-color:#E42B1E"
         id="stop3276-1" />
      <stop
         offset="0.99"
         style="stop-color:#990000"
         id="stop3278-0" />
      <stop
         offset="1"
         style="stop-color:#990000"
         id="stop3280-3" />
    </linearGradient>
  </defs>
  <sodipodi:namedview
     id="base"
     pagecolor="#ffffff"
     bordercolor="#666666"
     borderopacity="1.0"
     inkscape:pageopacity="0.0"
     inkscape:pageshadow="2"
     inkscape:zoom="1.979899"
     inkscape:cx="7.0902026"
     inkscape:cy="103.80772"
     inkscape:document-units="mm"
     inkscape:current-layer="layer1"
     showgrid="false"
     fit-margin-top="0"
     fit-margin-left="0"
     fit-margin-right="0"
     fit-margin-bottom="0"
     inkscape:window-width="1920"
     inkscape:window-height="1152"
     inkscape:window-x="0"
     inkscape:window-y="20"
     inkscape:window-maximized="1"
     inkscape:snap-global="false" />
  <metadata
     id="metadata5">
    <rdf:RDF>
      <cc:Work
         rdf:about="">
        <dc:format>image/svg+xml</dc:format>
        <dc:type
           rdf:resource="http://purl.org/dc/dcmitype/StillImage" />
        <dc:title></dc:title>
      </cc:Work>
    </rdf:RDF>
  </metadata>
  <g
     inkscape:label="Layer 1"
     inkscape:groupmode="layer"
     id="layer1"
     transform="translate(-3.4015623,-1.0448973)">
    <path
       style="clip-rule:evenodd;fill:#2da0b7;fill-opacity:1;fill-rule:evenodd;stroke-width:0.76037365"
       d="M 160.66406 55.980469 A 59.013638 102.86434 46.178415 0 1 146.47656 89.585938 L 154.03906 142.7207 L 160.66406 55.980469 z M 144.57422 92.701172 A 59.013637 102.86434 46.178415 0 1 144.57227 92.703125 A 59.013638 102.86434 46.178415 0 1 139.54883 100.08203 A 59.013637 102.86434 46.178415 0 1 139.53125 100.10938 A 59.013636 102.86434 46.178415 0 1 139.52539 100.11719 A 59.013637 102.86434 46.178415 0 1 139.30664 100.42969 A 59.013638 102.86434 46.178415 0 1 139.02734 100.82812 A 59.013635 102.86434 46.178415 0 1 138.86328 101.06055 A 59.013638 102.86434 46.178415 0 1 133.92969 107.43359 A 59.013635 102.86434 46.178415 0 1 132.53711 109.18555 A 59.013637 102.86434 46.178415 0 1 132.52734 109.19727 A 59.013638 102.86434 46.178415 0 1 132.52148 109.20312 A 59.013638 102.86434 46.178415 0 1 127.97266 114.41406 A 59.013637 102.86434 46.178415 0 1 127.9707 114.41602 A 59.013636 102.86434 46.178415 0 1 127.95703 114.43164 A 59.013635 102.86434 46.178415 0 1 125.56055 117.10547 A 59.013638 102.86434 46.178415 0 1 125.55469 117.11133 A 59.013637 102.86434 46.178415 0 1 125.55273 117.11328 A 59.013638 102.86434 46.178415 0 1 119.62695 123.1875 A 59.013635 102.86434 46.178415 0 1 119.29102 123.49609 L 153.20117 153.67773 L 153.21875 153.44531 L 144.57422 92.701172 z M 117.57031 125.07227 A 59.013638 102.86434 46.178415 0 1 109.9668 131.83008 A 59.013636 102.86434 46.178415 0 1 109.96484 131.83203 A 59.013635 102.86434 46.178415 0 1 109.70117 132.04688 A 59.013637 102.86434 46.178415 0 1 109.69922 132.04883 A 59.013638 102.86434 46.178415 0 1 109.68359 132.06055 A 59.013638 102.86434 46.178415 0 1 102.05859 138.08398 A 59.013636 102.86434 46.178415 0 1 102.04688 138.09375 A 59.013635 102.86434 46.178415 0 1 101.48828 138.49609 A 59.013637 102.86434 46.178415 0 1 101.48633 138.49805 A 59.013638 102.86434 46.178415 0 1 101.46289 138.51562 A 59.013638 102.86434 46.178415 0 1 93.929688 143.77148 A 59.013635 102.86434 46.178415 0 1 92.736328 144.52734 A 59.013637 102.86434 46.178415 0 1 92.732422 144.5293 A 59.013638 102.86434 46.178415 0 1 86.222656 148.5332 L 149.40625 153.4082 L 117.57031 125.07227 z M 82.496094 150.57227 A 59.013638 102.86434 46.178415 0 1 74.035156 154.77344 A 59.013638 102.86434 46.178415 0 1 74.029297 154.77734 A 59.013635 102.86434 46.178415 0 1 74.027344 154.77734 A 59.013636 102.86434 46.178415 0 1 74.023438 154.7793 A 59.013637 102.86434 46.178415 0 1 74.015625 154.7832 A 59.013638 102.86434 46.178415 0 1 74.001953 154.78906 A 59.013638 102.86434 46.178415 0 1 65.658203 158.22266 A 59.013636 102.86434 46.178415 0 1 65.634766 158.23242 A 59.013635 102.86434 46.178415 0 1 65.599609 158.24609 A 59.013636 102.86434 46.178415 0 1 65.572266 158.25586 A 59.013637 102.86434 46.178415 0 1 65.556641 158.26172 A 59.013638 102.86434 46.178415 0 1 65.542969 158.26562 A 59.013638 102.86434 46.178415 0 1 59.314453 160.35547 A 59.013635 102.86434 46.178415 0 1 59.310547 160.35742 L 139.125 154.94141 L 82.498047 150.57227 A 59.013638 102.86434 46.178415 0 1 82.496094 150.57227 z "
       id="polygon3282"
       transform="matrix(0.26458333,0,0,0.26458333,3.4015623,1.0448973)" />
    <path
       style="clip-rule:evenodd;fill:#2da0b7;fill-opacity:1;fill-rule:evenodd;stroke-width:0.76037365"
       d="m 57.285454,105.47178 -32.833023,7.48711 17.824913,48.45713 c 0,0 10.480386,-37.1594 15.00811,-55.94424 z"
       id="polygon3319"
       inkscape:connector-curvature="0"
       sodipodi:nodetypes="cccc"
       transform="matrix(0.26458333,0,0,0.26458333,3.4015623,1.0448973)" />
    <path
       style="clip-rule:evenodd;fill:#2da0b7;fill-opacity:1;fill-rule:evenodd;stroke-width:0.76037365"
       d="M 104.10742 69.462891 L 95.535156 70.355469 L 59.636719 103.81836 L 59.609375 103.89062 L 117.70703 122.46094 L 104.10742 69.462891 z "
       id="polygon3334"
       transform="matrix(0.26458333,0,0,0.26458333,3.4015623,1.0448973)" />
    <path
       style="clip-rule:evenodd;fill:#2da0b7;fill-opacity:1;fill-rule:evenodd;stroke-width:0.76037365"
       d="m 122.57481,32.459272 -10.43223,1.288775 -8.37081,29.189453 52.02706,-4.595703 C 147.97761,52.019872 122.57481,32.459272 122.57481,32.459272 Z"
       id="polygon3349"
       inkscape:connector-curvature="0"
       sodipodi:nodetypes="ccccc"
       transform="matrix(0.26458333,0,0,0.26458333,3.4015623,1.0448973)" />
    <path
       style="clip-rule:evenodd;fill:#2da0b7;fill-opacity:1;fill-rule:evenodd;stroke-width:0.76037365"
       d="m 99.171875,11.720703 c -66.114583,107.423177 -33.057292,53.71159 0,0 z m 0.351563,0.002 0.476562,2.382813 14.49023,10.488281 0.0937,0.07813 23.1211,-12.775391 z"
       id="polygon3362"
       inkscape:connector-curvature="0"
       sodipodi:nodetypes="cccccccc"
       transform="matrix(0.26458333,0,0,0.26458333,3.4015623,1.0448973)" />
    <path
       style="clip-rule:evenodd;fill:#2da0b7;fill-opacity:1;fill-rule:evenodd;stroke-width:0.76037365"
       d="m 12.707031,97.957031 z m 3.482422,-0.4375 -3.492187,0.654297 -1.595704,33.343752 7.121094,-12.98633 3.115235,-5.88867 -0.01563,0.002 z"
       id="polygon3375"
       inkscape:connector-curvature="0"
       sodipodi:nodetypes="ccccccccc"
       transform="matrix(0.26458333,0,0,0.26458333,3.4015623,1.0448973)" />
    <path
       style="clip-rule:evenodd;fill:#2da0b7;fill-opacity:1;fill-rule:evenodd;stroke-width:0.76037359"
       d="M 59.357819,106.75137 45.125,161.08398 c 28.498248,-3.4917 50.339173,-18.57165 69.97656,-36.61328 z"
       id="path3413"
       inkscape:connector-curvature="0"
       sodipodi:nodetypes="cccc"
       transform="matrix(0.26458333,0,0,0.26458333,3.4015623,1.0448973)" />
    <path
       style="clip-rule:evenodd;fill:#2da0b7;fill-opacity:1;fill-rule:evenodd;stroke-width:0.76037359"
       d="m 158.15625,60.517578 -52.38366,5.613003 13.93835,54.010039 c 16.44512,-17.5595 31.0376,-36.489051 38.44531,-59.623042 z"
       id="path3424"
       inkscape:connector-curvature="0"
       sodipodi:nodetypes="cccc"
       transform="matrix(0.26458333,0,0,0.26458333,3.4015623,1.0448973)" />
    <path
       style="clip-rule:evenodd;fill:#2da0b7;fill-opacity:1;fill-rule:evenodd;stroke-width:0.76037359"
       d="m 140.18359,12.466797 -23.10116,13.158689 41.7789,32.458498 c 5.1266,-17.129894 5.4918,-39.949062 -18.67774,-45.617187 z"
       id="path3435"
       inkscape:connector-curvature="0"
       sodipodi:nodetypes="cccc"
       transform="matrix(0.26458333,0,0,0.26458333,3.4015623,1.0448973)" />
    <path
       style="clip-rule:evenodd;fill:#2da0b7;fill-opacity:1;fill-rule:evenodd;stroke-width:0.76037359"
       d="m 11.101562,131.25977 c 0.0063,0.22826 0.02443,0.43926 0.0332,0.66406 10.659407,-20.1268 11.408544,-21.59619 -0.0332,-0.66406 z M 22.495797,115.42179 11.46875,136.25977 c 2.693424,22.28765 18.759969,24.69145 28.113281,25.13085 z"
       id="path3437"
       inkscape:connector-curvature="0"
       sodipodi:nodetypes="ccccccc"
       transform="matrix(0.26458333,0,0,0.26458333,3.4015623,1.0448973)" />
    <path
       style="clip-rule:evenodd;fill:#2da0b7;fill-opacity:1;fill-rule:evenodd;stroke-width:0.19874769"
       inkscape:connector-curvature="0"
       d="M 15.050026,12.689983 C 20.899171,6.8905247 28.439659,3.4641151 31.333424,6.3837185 34.225403,9.3033219 31.158526,16.398614 25.309383,22.196084 19.460237,27.993555 12.013162,31.608775 9.1213825,28.689172 6.2276156,25.771556 9.2008813,18.487452 15.050026,12.689983 Z"
       id="path3400" />
  </g>
</svg>
