<?xml version="1.0" encoding="UTF-8" standalone="no"?>
<svg
   xmlns:dc="http://purl.org/dc/elements/1.1/"
   xmlns:cc="http://creativecommons.org/ns#"
   xmlns:rdf="http://www.w3.org/1999/02/22-rdf-syntax-ns#"
   xmlns:svg="http://www.w3.org/2000/svg"
   xmlns="http://www.w3.org/2000/svg"
   xmlns:sodipodi="http://sodipodi.sourceforge.net/DTD/sodipodi-0.dtd"
   xmlns:inkscape="http://www.inkscape.org/namespaces/inkscape"
   version="1.1"
   x="0px"
   y="0px"
   width="100px"
   height="100px"
   viewBox="0 0 100 100"
   enable-background="new 0 0 100 100"
   xml:space="preserve"
   id="svg2"
   inkscape:version="0.91 r13725"
   sodipodi:docname="application-x-lzma-compressed-tar.svg"
   inkscape:export-filename="C:\Users\wilkie\occam\configuration.png"
   inkscape:export-xdpi="18"
   inkscape:export-ydpi="18"><metadata
     id="metadata122"><rdf:RDF><cc:Work
         rdf:about=""><dc:format>image/svg+xml</dc:format><dc:type
           rdf:resource="http://purl.org/dc/dcmitype/StillImage" /><dc:title></dc:title></cc:Work></rdf:RDF></metadata><defs
     id="defs120" /><sodipodi:namedview
     pagecolor="#ffffff"
     bordercolor="#666666"
     borderopacity="1"
     objecttolerance="10"
     gridtolerance="10"
     guidetolerance="10"
     inkscape:pageopacity="0"
     inkscape:pageshadow="2"
     inkscape:window-width="1920"
     inkscape:window-height="1057"
     id="namedview118"
     showgrid="false"
     inkscape:zoom="6.675088"
     inkscape:cx="15.138458"
     inkscape:cy="59.065641"
     inkscape:window-x="-8"
     inkscape:window-y="1072"
     inkscape:window-maximized="1"
     inkscape:current-layer="svg2"
     inkscape:object-nodes="false" /><path
     style="font-style:normal;font-variant:normal;font-weight:bold;font-stretch:normal;font-size:medium;line-height:1.25;font-family:'Open Sans';-inkscape-font-specification:'Open Sans Bold';letter-spacing:-2.38999987px;word-spacing:0px;fill:#2da0b7;fill-opacity:1;stroke:none;stroke-width:0.80709034"
     d="M 12.1875 72.810547 L 12.1875 95.855469 L 25.318359 95.855469 L 25.318359 91.820312 L 17.074219 91.820312 L 17.074219 72.810547 L 12.1875 72.810547 z "
     id="path17698" /><path
     inkscape:connector-curvature="0"
     id="path17700"
     style="font-style:normal;font-variant:normal;font-weight:bold;font-stretch:normal;font-size:medium;line-height:1.25;font-family:'Open Sans';-inkscape-font-specification:'Open Sans Bold';letter-spacing:-2.38999987px;word-spacing:0px;fill:#2da0b7;fill-opacity:1;stroke:none;stroke-width:0.80709034"
     d="m 43.042779,95.855942 -17.150671,0 0,-3.16846 11.050203,-15.842302 -10.750697,0 0,-4.035452 16.551659,0 0,3.152697 -11.034439,15.858065 11.333945,0 0,4.035452 z" /><path
     inkscape:connector-curvature="0"
     id="path17702"
     style="font-style:normal;font-variant:normal;font-weight:bold;font-stretch:normal;font-size:medium;line-height:1.25;font-family:'Open Sans';-inkscape-font-specification:'Open Sans Bold';letter-spacing:-2.38999987px;word-spacing:0px;fill:#2da0b7;fill-opacity:1;stroke:none;stroke-width:0.80709034"
     d="m 54.114792,95.855942 -5.548746,-18.080716 -0.141871,0 q 0.299506,5.517219 0.299506,7.361547 l 0,10.719169 -4.366485,0 0,-23.046214 6.65219,0 5.454165,17.623575 0.09458,0 5.785199,-17.623575 6.65219,0 0,23.046214 -4.555647,0 0,-10.908331 q 0,-0.772411 0.01576,-1.781274 0.03153,-1.008863 0.220688,-5.359584 l -0.141871,0 -5.942833,18.049189 -4.47683,0 z" /><path
     inkscape:connector-curvature="0"
     id="path17704"
     style="font-style:normal;font-variant:normal;font-weight:bold;font-stretch:normal;font-size:medium;line-height:1.25;font-family:'Open Sans';-inkscape-font-specification:'Open Sans Bold';letter-spacing:-2.38999987px;word-spacing:0px;fill:#2da0b7;fill-opacity:1;stroke:none;stroke-width:0.80709034"
     d="m 86.530566,95.855942 -1.670929,-5.485693 -8.401937,0 -1.67093,5.485693 -5.265003,0 8.133957,-23.140795 5.974361,0 8.165484,23.140795 -5.265003,0 z M 83.693139,86.271744 Q 81.375907,78.815616 81.0764,77.83828 q -0.283742,-0.977336 -0.40985,-1.544822 -0.520195,2.017726 -2.979299,9.978286 l 6.005888,0 z" /><path
     style="color:#000000;font-style:normal;font-variant:normal;font-weight:normal;font-stretch:normal;font-size:medium;line-height:normal;font-family:sans-serif;text-indent:0;text-align:start;text-decoration:none;text-decoration-line:none;text-decoration-style:solid;text-decoration-color:#000000;letter-spacing:normal;word-spacing:normal;text-transform:none;direction:ltr;writing-mode:lr-tb;baseline-shift:baseline;text-anchor:start;white-space:normal;clip-rule:nonzero;display:inline;overflow:visible;visibility:visible;opacity:1;isolation:auto;mix-blend-mode:normal;color-interpolation:sRGB;color-interpolation-filters:linearRGB;solid-color:#000000;solid-opacity:1;fill:#2da0b7;fill-opacity:1;fill-rule:nonzero;stroke:none;stroke-width:3.8235395;stroke-linecap:butt;stroke-linejoin:miter;stroke-miterlimit:4;stroke-dasharray:none;stroke-dashoffset:0;stroke-opacity:1;color-rendering:auto;image-rendering:auto;shape-rendering:auto;text-rendering:auto;enable-background:accumulate"
     d="M 3.4199219 5.4628906 L 3.4199219 5.6445312 L 3.6015625 5.4628906 L 3.4199219 5.4628906 z M 18.34375 5.4628906 L 22.392578 9.2871094 L 94.255859 9.2871094 L 94.255859 53.673828 C 94.310259 53.699098 94.363706 53.726469 94.416016 53.755859 L 97.169922 55.345703 C 97.560072 55.571859 97.876228 55.90634 98.080078 56.308594 L 98.080078 5.4628906 L 18.34375 5.4628906 z M 3.4199219 17.412109 L 3.4199219 86.785156 L 9.1386719 86.785156 L 9.1386719 82.960938 L 7.2421875 82.960938 L 7.2421875 30.330078 L 3.4199219 17.412109 z M 98.080078 58.416016 C 98.061578 58.454316 98.042084 58.492117 98.021484 58.529297 L 94.255859 65.052734 L 94.255859 82.960938 L 91.234375 82.960938 L 91.234375 86.785156 L 98.080078 86.785156 L 98.080078 58.416016 z "
     id="rect962-5" /><path
     style="fill:#2da0b7;fill-opacity:1;stroke:none;stroke-width:1.31233025px;stroke-linecap:butt;stroke-linejoin:miter;stroke-opacity:1"
     d="M 9.7914083,3.0281017 5.1545893,5.6091072 10.271906,27.737046 24.701787,19.704899 Z m 4.6085667,12.7138663 4.334916,3.625271 -5.941716,3.307356 -0.300573,-5.868845 z"
     id="path964"
     inkscape:connector-curvature="0" /><path
     inkscape:connector-curvature="0"
     style="fill:#2da0b7;fill-opacity:1;stroke:none;stroke-width:0.77710754"
     d="m 23.006866,23.251565 -7.804688,4.345703 1.730469,1.730469 6.074219,-6.076172 z"
     id="rect969" /><rect
     transform="matrix(0.70710678,-0.70710678,0.70710678,0.70710678,0,0)"
     y="35.189232"
     x="-8.7653074"
     height="3.1779659"
     width="13.135592"
     id="rect971"
     style="fill:#2da0b7;fill-opacity:1;stroke:none;stroke-width:0.77710754" /><rect
     style="fill:#2da0b7;fill-opacity:1;stroke:none;stroke-width:0.77710754"
     id="rect973"
     width="13.135592"
     height="3.1779659"
     x="-8.7653074"
     y="40.846092"
     transform="matrix(0.70710678,-0.70710678,0.70710678,0.70710678,0,0)" /><rect
     transform="matrix(0.5,-0.8660254,0.8660254,0.5,0,0)"
     y="44.514843"
     x="-20.318956"
     height="3.1779659"
     width="13.135592"
     id="rect975"
     style="fill:#2da0b7;fill-opacity:1;stroke:none;stroke-width:0.77710754" /><rect
     style="fill:#2da0b7;fill-opacity:1;stroke:none;stroke-width:0.77710754"
     id="rect977"
     width="13.135592"
     height="3.1779659"
     x="-32.500465"
     y="45.013268"
     transform="matrix(0.25881905,-0.96592583,0.96592583,0.25881905,0,0)" /><rect
     transform="matrix(0,-1,1,0,0,0)"
     y="42.361374"
     x="-44.277618"
     height="3.1779659"
     width="13.135592"
     id="rect979"
     style="fill:#2da0b7;fill-opacity:1;stroke:none;stroke-width:0.77710754" /><rect
     style="fill:#2da0b7;fill-opacity:1;stroke:none;stroke-width:0.77710754"
     id="rect981"
     width="13.135592"
     height="3.1779659"
     x="-30.879232"
     y="56.273167"
     transform="matrix(0.25881905,-0.96592583,0.96592583,0.25881905,0,0)" /><rect
     transform="matrix(0.5,-0.8660254,0.8660254,0.5,0,0)"
     y="66.041023"
     x="-14.412474"
     height="3.1779659"
     width="13.135592"
     id="rect983"
     style="fill:#2da0b7;fill-opacity:1;stroke:none;stroke-width:0.77710754" /><rect
     style="fill:#2da0b7;fill-opacity:1;stroke:none;stroke-width:0.77710754"
     id="rect985"
     width="13.135592"
     height="3.1779659"
     x="3.7824905"
     y="71.211929"
     transform="matrix(0.70710678,-0.70710678,0.70710678,0.70710678,0,0)" /><rect
     transform="matrix(0.8660254,-0.5,0.5,0.8660254,0,0)"
     y="71.606133"
     x="22.992498"
     height="3.1779659"
     width="13.135592"
     id="rect987"
     style="fill:#2da0b7;fill-opacity:1;stroke:none;stroke-width:0.77710754" /><rect
     style="fill:#2da0b7;fill-opacity:1;stroke:none;stroke-width:0.77710754"
     id="rect989"
     width="13.135592"
     height="3.1779659"
     x="1.6762298"
     y="-111.82312"
     transform="matrix(-0.5,0.8660254,-0.8660254,-0.5,0,0)" /><rect
     transform="matrix(-0.25881905,0.96592583,-0.96592583,-0.25881905,0,0)"
     y="-100.30484"
     x="29.208502"
     height="3.1779659"
     width="13.135592"
     id="rect991"
     style="fill:#2da0b7;fill-opacity:1;stroke:none;stroke-width:0.77710754" /><rect
     style="fill:#2da0b7;fill-opacity:1;stroke:none;stroke-width:0.77710754"
     id="rect993"
     width="13.135592"
     height="3.1779659"
     x="52.939751"
     y="-82.033669"
     transform="matrix(0,1,-1,0,0,0)" /><rect
     transform="matrix(-0.25881905,0.96592583,-0.96592583,-0.25881905,0,0)"
     y="-89.04493"
     x="30.829725"
     height="3.1779659"
     width="13.135592"
     id="rect995"
     style="fill:#2da0b7;fill-opacity:1;stroke:none;stroke-width:0.77710754" /><rect
     style="fill:#2da0b7;fill-opacity:1;stroke:none;stroke-width:0.77710754"
     id="rect997"
     width="13.135592"
     height="3.1779659"
     x="7.5827165"
     y="-90.296944"
     transform="matrix(-0.5,0.8660254,-0.8660254,-0.5,0,0)" /><rect
     transform="matrix(-0.70710678,0.70710678,-0.70710678,-0.70710678,0,0)"
     y="-85.491714"
     x="-15.435032"
     height="3.1779659"
     width="13.135592"
     id="rect999"
     style="fill:#2da0b7;fill-opacity:1;stroke:none;stroke-width:0.77710754" /></svg>