<?xml version="1.0" encoding="UTF-8" standalone="no"?>
<svg
   xmlns:dc="http://purl.org/dc/elements/1.1/"
   xmlns:cc="http://creativecommons.org/ns#"
   xmlns:rdf="http://www.w3.org/1999/02/22-rdf-syntax-ns#"
   xmlns:svg="http://www.w3.org/2000/svg"
   xmlns="http://www.w3.org/2000/svg"
   xmlns:sodipodi="http://sodipodi.sourceforge.net/DTD/sodipodi-0.dtd"
   xmlns:inkscape="http://www.inkscape.org/namespaces/inkscape"
   width="22"
   height="22"
   viewBox="0 0 22 22"
   version="1.1"
   id="svg2"
   inkscape:version="0.92.2 5c3e80d, 2017-08-06"
   sodipodi:docname="failed.svg"
   inkscape:export-filename="Z:\projects\occam\Large-Icons\group_large.png"
   inkscape:export-xdpi="392.72726"
   inkscape:export-ydpi="392.72726">
  <metadata
     id="metadata14">
    <rdf:RDF>
      <cc:Work
         rdf:about="">
        <dc:format>image/svg+xml</dc:format>
        <dc:type
           rdf:resource="http://purl.org/dc/dcmitype/StillImage" />
        <dc:title>album_collection</dc:title>
      </cc:Work>
    </rdf:RDF>
  </metadata>
  <sodipodi:namedview
     pagecolor="#ffffff"
     bordercolor="#666666"
     borderopacity="1"
     objecttolerance="10"
     gridtolerance="10"
     guidetolerance="10"
     inkscape:pageopacity="0"
     inkscape:pageshadow="2"
     inkscape:window-width="1920"
     inkscape:window-height="1152"
     id="namedview12"
     showgrid="false"
     inkscape:zoom="22.627417"
     inkscape:cx="18.499805"
     inkscape:cy="15.570945"
     inkscape:window-x="0"
     inkscape:window-y="20"
     inkscape:window-maximized="1"
     inkscape:current-layer="g6299"
     inkscape:snap-others="false"
     inkscape:object-nodes="false"
     inkscape:snap-nodes="false"
     inkscape:snap-global="false" />
  <title
     id="title4">album_collection</title>
  <description
     id="description6">Created with Sketch (http://www.bohemiancoding.com/sketch)</description>
  <defs
     id="defs8" />
  <g
     id="g6299"
     transform="translate(179.67237,-70.223625)">
    <path
       style="fill:#b3b3b3;fill-opacity:1;stroke-width:0.71377462"
       d="M 13.357422 5.2402344 L 13.300781 6.5 A 5.0632285 5.0632285 0 0 1 16.0625 11 A 5.0632285 5.0632285 0 0 1 11 16.0625 A 5.0632285 5.0632285 0 0 1 5.9375 11 A 5.0632285 5.0632285 0 0 1 8.6992188 6.4980469 L 8.6425781 5.2441406 A 6.234375 6.234375 0 0 0 4.765625 11 A 6.234375 6.234375 0 0 0 11 17.234375 A 6.234375 6.234375 0 0 0 17.234375 11 A 6.234375 6.234375 0 0 0 13.357422 5.2402344 z "
       transform="translate(-179.67237,70.223625)"
       id="path999" />
    <circle
       style="fill:#b3b3b3;fill-opacity:1"
       id="path1077"
       cx="-168.67236"
       cy="84.23925"
       r="1.265625" />
    <path
       style="fill:#b3b3b3;fill-opacity:1;stroke-width:1.24229908"
       d="M 9.8203125 4.71875 L 10.111328 12.103516 A 2.109375 2.109375 0 0 1 11 11.90625 A 2.109375 2.109375 0 0 1 11.888672 12.103516 L 12.179688 4.71875 L 9.8203125 4.71875 z "
       transform="translate(-179.67237,70.223625)"
       id="rect1079" />
  </g>
</svg>
