<?xml version="1.0" encoding="UTF-8" standalone="no"?>
<!-- Created with Inkscape (http://www.inkscape.org/) -->

<svg
   xmlns:dc="http://purl.org/dc/elements/1.1/"
   xmlns:cc="http://creativecommons.org/ns#"
   xmlns:rdf="http://www.w3.org/1999/02/22-rdf-syntax-ns#"
   xmlns:svg="http://www.w3.org/2000/svg"
   xmlns="http://www.w3.org/2000/svg"
   xmlns:sodipodi="http://sodipodi.sourceforge.net/DTD/sodipodi-0.dtd"
   xmlns:inkscape="http://www.inkscape.org/namespaces/inkscape"
   width="22.053652mm"
   height="9.5552387mm"
   viewBox="0 0 78.142861 33.857145"
   id="svg2"
   version="1.1"
   inkscape:version="0.91 r13725"
   sodipodi:docname="separator_thumb.svg"
   inkscape:export-filename="Z:\projects\occam\UI\separator_thumb.png"
   inkscape:export-xdpi="23.924049"
   inkscape:export-ydpi="23.924049">
  <defs
     id="defs4" />
  <sodipodi:namedview
     id="base"
     pagecolor="#ffffff"
     bordercolor="#666666"
     borderopacity="1.0"
     inkscape:pageopacity="0.0"
     inkscape:pageshadow="2"
     inkscape:zoom="0.25"
     inkscape:cx="-596.63021"
     inkscape:cy="123.63732"
     inkscape:document-units="px"
     inkscape:current-layer="layer1"
     showgrid="false"
     fit-margin-top="0"
     fit-margin-left="0"
     fit-margin-right="0"
     fit-margin-bottom="0"
     inkscape:window-width="1920"
     inkscape:window-height="1058"
     inkscape:window-x="-8"
     inkscape:window-y="-8"
     inkscape:window-maximized="1" />
  <metadata
     id="metadata7">
    <rdf:RDF>
      <cc:Work
         rdf:about="">
        <dc:format>image/svg+xml</dc:format>
        <dc:type
           rdf:resource="http://purl.org/dc/dcmitype/StillImage" />
        <dc:title></dc:title>
      </cc:Work>
    </rdf:RDF>
  </metadata>
  <g
     inkscape:label="Layer 1"
     inkscape:groupmode="layer"
     id="layer1"
     transform="translate(-332.9758,-139.00507)">
    <rect
       style="fill:#dadada;fill-opacity:1;stroke:#ffffff;stroke-linejoin:miter"
       id="rect4136"
       width="77.14286"
       height="32.857143"
       x="333.4758"
       y="139.50507" />
    <rect
       style="fill:#626262;fill-opacity:1;stroke:none;stroke-linejoin:miter"
       id="rect4173"
       width="3.6516504"
       height="16.406097"
       x="370.22141"
       y="148.1494" />
    <rect
       y="148.1494"
       x="382.22141"
       height="16.406097"
       width="3.6516504"
       id="rect4175"
       style="fill:#626262;fill-opacity:1;stroke:none;stroke-linejoin:miter" />
    <rect
       y="148.1494"
       x="358.22141"
       height="16.406097"
       width="3.6516504"
       id="rect4162"
       style="fill:#626262;fill-opacity:1;stroke:none;stroke-linejoin:miter" />
    <rect
       style="fill:#888888;fill-opacity:1;stroke:none;stroke-linejoin:miter"
       id="rect4138"
       width="2.6516504"
       height="15.531096"
       x="358.22141"
       y="148.1494" />
    <rect
       y="148.1494"
       x="382.22141"
       height="15.531096"
       width="2.6516504"
       id="rect4149"
       style="fill:#888888;fill-opacity:1;stroke:none;stroke-linejoin:miter" />
    <rect
       style="fill:#888888;fill-opacity:1;stroke:none;stroke-linejoin:miter"
       id="rect4151"
       width="2.6516504"
       height="15.531096"
       x="370.22141"
       y="148.1494" />
  </g>
</svg>
