<?xml version="1.0" encoding="UTF-8" standalone="no"?>
<svg
   xmlns:dc="http://purl.org/dc/elements/1.1/"
   xmlns:cc="http://creativecommons.org/ns#"
   xmlns:rdf="http://www.w3.org/1999/02/22-rdf-syntax-ns#"
   xmlns:svg="http://www.w3.org/2000/svg"
   xmlns="http://www.w3.org/2000/svg"
   xmlns:sodipodi="http://sodipodi.sourceforge.net/DTD/sodipodi-0.dtd"
   xmlns:inkscape="http://www.inkscape.org/namespaces/inkscape"
   version="1.1"
   id="Layer_1"
   x="0px"
   y="0px"
   width="100px"
   height="100px"
   viewBox="0 0 100 100"
   enable-background="new 0 0 100 100"
   xml:space="preserve"
   sodipodi:docname="workflow-job-list.svg"
   inkscape:version="0.92.2 2405546, 2018-03-11"><metadata
   id="metadata5044"><rdf:RDF><cc:Work
       rdf:about=""><dc:format>image/svg+xml</dc:format><dc:type
         rdf:resource="http://purl.org/dc/dcmitype/StillImage" /><dc:title></dc:title></cc:Work></rdf:RDF></metadata><defs
   id="defs5042" /><sodipodi:namedview
   pagecolor="#ffffff"
   bordercolor="#666666"
   borderopacity="1"
   objecttolerance="10"
   gridtolerance="10"
   guidetolerance="10"
   inkscape:pageopacity="0"
   inkscape:pageshadow="2"
   inkscape:window-width="1920"
   inkscape:window-height="1152"
   id="namedview5040"
   showgrid="false"
   inkscape:zoom="6.7387276"
   inkscape:cx="58.318646"
   inkscape:cy="50.658352"
   inkscape:window-x="0"
   inkscape:window-y="20"
   inkscape:window-maximized="1"
   inkscape:current-layer="Layer_1" />















































<path
   style="fill:#c4eac5;fill-opacity:1;stroke:none;stroke-width:1.48145604;stroke-miterlimit:4;stroke-dasharray:8.88873619, 8.88873619;stroke-dashoffset:0;stroke-opacity:1"
   d="m 7.2157244,8.5573194 c -2.4816749,0 -4.4808104,1.9991366 -4.4808104,4.4808106 0,2.481675 1.9991355,4.478404 4.4808104,4.478404 H 92.784276 c 2.481674,0 4.48081,-1.996729 4.48081,-4.478404 0,-2.481674 -1.999136,-4.4808069 -4.48081,-4.4808106 z m 0,14.7852296 c -2.4816749,2e-6 -4.4808104,1.999137 -4.4808104,4.480811 0,2.481675 1.9991355,4.478404 4.4808104,4.478404 H 19.308136 c 0.949006,-1.860495 2.189453,-3.606853 3.739623,-5.157023 1.581874,-1.581874 3.37171,-2.841805 5.277345,-3.802192 z m 39.6462646,0 c 1.905976,0.960344 3.695642,2.220192 5.277345,3.802192 1.549928,1.550156 2.788755,3.296467 3.737217,5.157023 h 36.907725 c 2.481674,0 4.48081,-1.996729 4.48081,-4.478404 0,-2.481674 -1.999136,-4.480811 -4.48081,-4.480811 z M 7.2157244,38.127779 c -2.4816749,0 -4.4808104,1.999136 -4.4808104,4.48081 0,2.481675 1.9991355,4.478404 4.4808104,4.478404 H 17.780039 C 16.994733,44.163345 16.85959,41.100715 17.375756,38.127779 Z m 23.7661006,0 c -1.551886,2.847136 -1.121572,6.44461 1.30189,8.867769 a 4.5521618,4.5521618 0 0 0 0.0024,0.0024 c 0.03173,0.03174 0.06653,0.05798 0.09866,0.08904 h 10.415116 c 0.03213,-0.03106 0.06693,-0.0573 0.09867,-0.08904 a 4.5521618,4.5521618 0 0 0 0.0024,-0.0024 c 2.42417,-2.423867 2.854853,-6.021254 1.30189,-8.867769 z m 26.827106,0 c 0.515156,2.97291 0.376899,6.035688 -0.409097,8.959214 h 35.384442 c 2.481674,0 4.48081,-1.996729 4.48081,-4.478404 0,-2.481674 -1.999136,-4.48081 -4.48081,-4.48081 z M 7.2157244,52.913008 c -2.4816749,0 -4.4808104,1.999137 -4.4808104,4.48081 0,2.481675 1.9991355,4.478404 4.4808104,4.478404 H 33.773307 C 29.834448,61.138704 26.072312,59.262993 23.045353,56.236316 a 4.5521618,4.5521618 0 0 0 -0.0024,-0.0024 c -1.028272,-1.028465 -1.91729,-2.144862 -2.680786,-3.320902 z m 52.3499146,0 c 0.547965,0.657769 0.916703,1.41602 1.155096,2.209121 0.647004,0.366312 1.347297,0.855188 2.043076,1.549755 a 4.0888133,4.0888133 0 0 1 0.0048,0.0024 c 1.238968,1.240411 1.783187,2.262835 2.709663,3.561546 0.396727,0.556122 0.812907,1.109836 1.22007,1.636386 h 26.085919 c 2.481674,0 4.48081,-1.996729 4.48081,-4.478404 0,-2.481673 -1.999136,-4.48081 -4.48081,-4.48081 z m -12.855256,7.190473 c -1.698585,0.833269 -3.487656,1.429005 -5.318255,1.768741 h 5.95837 c -0.30351,-0.557867 -0.514662,-1.155195 -0.640115,-1.768741 z M 7.2157244,67.698237 c -2.4816749,0 -4.4808104,1.999137 -4.4808104,4.480811 0,2.481675 1.9991355,4.478404 4.4808104,4.478404 H 63.030927 C 61.781063,74.927725 60.52181,73.267408 59.5512,72.296964 58.799016,71.544982 57.435544,70.50311 56.136448,69.575269 55.172932,68.887105 54.361404,68.405341 53.501385,67.698237 Z m 66.1292486,0 c 0.32885,0.232863 0.638366,0.471389 0.964986,0.697872 2.330155,1.615753 4.261974,2.714047 5.936712,4.389365 0.922081,0.921621 1.662609,2.010335 2.057515,3.871978 h 10.48009 c 2.481674,0 4.48081,-1.996729 4.48081,-4.478404 0,-2.481674 -1.999136,-4.480811 -4.48081,-4.480811 z M 7.2157244,82.483467 c -2.4816749,0 -4.4808104,1.999136 -4.4808104,4.48081 0,2.481675 1.9991355,4.478404 4.4808104,4.478404 H 92.784276 c 2.481674,0 4.48081,-1.996729 4.48081,-4.478404 0,-2.481674 -1.999136,-4.48081 -4.48081,-4.48081 H 81.228503 c -0.341401,0.567829 -0.749964,1.110701 -1.239322,1.60029 a 4.0888133,4.0888133 0 0 0 -0.0024,0 C 77.940065,86.129988 75.003395,86.857549 72.904598,86.4878 70.8058,86.118053 69.670296,85.325454 68.686091,84.341247 a 4.0888133,4.0888133 0 0 0 -0.0024,0 c -0.581883,-0.582287 -1.087667,-1.207665 -1.576224,-1.85778 z"
   id="rect5046"
   inkscape:connector-curvature="0" /><path
   d="m 48.919398,53.016591 c -6.246005,6.24659 -16.408997,6.246005 -22.655587,0 -6.244835,-6.246004 -6.244835,-16.409582 5.86e-4,-22.655002 6.246004,-6.246005 16.409581,-6.246005 22.654416,0 6.24659,6.24542 6.247176,16.408998 5.85e-4,22.655002 z M 29.066588,33.163197 c -4.70132,4.701904 -4.70132,12.350468 0,17.051202 4.700735,4.701904 12.350468,4.701904 17.051203,0 4.701319,-4.700734 4.701319,-12.350468 -5.86e-4,-17.051202 -4.700734,-4.700735 -12.349297,-4.700735 -17.050617,0 z"
   id="path5031"
   inkscape:connector-curvature="0"
   style="fill:#c4eac5;fill-opacity:1;stroke-width:0.58488673" /><rect
   x="-4.9453583"
   y="73.220345"
   transform="rotate(-44.991897)"
   width="4.1152234"
   height="3.1466606"
   id="rect5033"
   style="fill:#c4eac5;fill-opacity:1;stroke-width:0.58488113" /><path
   d="m 55.808194,55.881951 c 0.614131,0.614716 0.614131,1.610778 0,2.22491 l -1.797357,1.798525 c -0.614717,0.612962 -1.611362,0.613547 -2.224908,0 v 0 c -0.614717,-0.614715 -0.614717,-1.611362 0,-2.225493 L 53.5827,55.881951 c 0.615301,-0.61413 1.611363,-0.613545 2.225494,0 z"
   id="path5035"
   inkscape:connector-curvature="0"
   style="fill:#c4eac5;fill-opacity:1;stroke-width:0.58488673" /><path
   d="M 65.308509,66.539171 C 63.126297,64.356959 60.879747,60.569819 59.874912,59.563813 58.868906,58.559562 57.157527,58.13084 57.157527,58.13084 l -1.540006,1.541178 -0.04269,0.04269 -1.541177,1.540591 c 0,0 0.428721,1.71138 1.434141,2.716216 1.005421,1.00542 4.791393,3.252554 6.974191,5.434767 3.423341,3.422757 7.445022,10.35425 9.134175,12.044571 0.556227,0.556228 3.038487,2.22491 5.52016,-0.25618 l -0.08421,-0.08423 0.08481,0.08423 c 2.481675,-2.482844 0.813578,-4.963934 0.256765,-5.520161 -1.690907,-1.691492 -8.621814,-5.712588 -12.045157,-9.135346 z"
   id="path5037"
   inkscape:connector-curvature="0"
   style="fill:#c4eac5;fill-opacity:1;stroke-width:0.58488673" /><path
   id="path5072"
   d="m 28.892677,36.712145 c -2.042306,3.746872 -1.476006,8.481205 1.713306,11.670118 l 0.0032,0.0032 c 0.04177,0.04177 0.08755,0.0763 0.129847,0.117186 h 13.70645 c 0.04229,-0.04088 0.08808,-0.07539 0.129847,-0.117186 l 0.0032,-0.0032 c 3.190245,-3.189846 3.757029,-7.924061 1.713307,-11.670118 z"
   style="fill:#c4eac5;fill-opacity:1;stroke:none;stroke-width:1.9496187;stroke-miterlimit:4;stroke-dasharray:11.69771171, 11.69771171;stroke-dashoffset:0;stroke-opacity:1"
   inkscape:connector-curvature="0"
   sodipodi:nodetypes="ccccccccc" /></svg>