<?xml version="1.0" encoding="UTF-8" standalone="no"?>
<svg
   xmlns:dc="http://purl.org/dc/elements/1.1/"
   xmlns:cc="http://creativecommons.org/ns#"
   xmlns:rdf="http://www.w3.org/1999/02/22-rdf-syntax-ns#"
   xmlns:svg="http://www.w3.org/2000/svg"
   xmlns="http://www.w3.org/2000/svg"
   xmlns:sodipodi="http://sodipodi.sourceforge.net/DTD/sodipodi-0.dtd"
   xmlns:inkscape="http://www.inkscape.org/namespaces/inkscape"
   version="1.1"
   x="0px"
   y="0px"
   width="100px"
   height="100px"
   viewBox="0 0 100 100"
   enable-background="new 0 0 100 100"
   xml:space="preserve"
   id="svg2"
   inkscape:version="0.48.4 r9939"
   sodipodi:docname="group_repository.svg"
   inkscape:export-filename="z:\projects\occam\Icons\group.png"
   inkscape:export-xdpi="18"
   inkscape:export-ydpi="18"><metadata
     id="metadata122"><rdf:RDF><cc:Work
         rdf:about=""><dc:format>image/svg+xml</dc:format><dc:type
           rdf:resource="http://purl.org/dc/dcmitype/StillImage" /><dc:title></dc:title></cc:Work></rdf:RDF></metadata><defs
     id="defs120" /><sodipodi:namedview
     pagecolor="#ffffff"
     bordercolor="#666666"
     borderopacity="1"
     objecttolerance="10"
     gridtolerance="10"
     guidetolerance="10"
     inkscape:pageopacity="0"
     inkscape:pageshadow="2"
     inkscape:window-width="1366"
     inkscape:window-height="744"
     id="namedview118"
     showgrid="false"
     inkscape:zoom="4"
     inkscape:cx="52.207888"
     inkscape:cy="27.787176"
     inkscape:window-x="0"
     inkscape:window-y="24"
     inkscape:window-maximized="1"
     inkscape:current-layer="svg2" /><rect
     style="opacity:1;fill:#6aa3ae;fill-opacity:1;stroke:none;stroke-width:13;stroke-linecap:round;stroke-linejoin:round;stroke-miterlimit:4;stroke-dasharray:none;stroke-opacity:1"
     id="rect4143"
     width="96.398308"
     height="70.127121"
     x="1.8008461"
     y="27.966101" /><rect
     style="opacity:1;fill:#6aa3ae;fill-opacity:1;stroke:none;stroke-width:13;stroke-linecap:round;stroke-linejoin:round;stroke-miterlimit:4;stroke-dasharray:none;stroke-opacity:1"
     id="rect4145"
     width="73.237289"
     height="9.8389835"
     x="13.381355"
     y="12.949152" /><circle
     transform="matrix(1.6766447,0,0,1.6766447,17.343208,37.791445)"
     sodipodi:ry="3.1003048"
     sodipodi:rx="3.1003048"
     sodipodi:cy="22.764921"
     sodipodi:cx="3.5037694"
     r="3.1003048"
     cy="22.764921"
     cx="3.5037694"
     id="circle4223"
     style="text-decoration:none;color:#000000;fill:#ffffff;fill-opacity:1;fill-rule:evenodd;stroke:#ffffff;visibility:visible;display:inline;overflow:visible;enable-background:accumulate" /><path
     sodipodi:type="star"
     style="fill:#ffffff;fill-opacity:1;stroke:#ffffff"
     id="path4151"
     sodipodi:sides="3"
     sodipodi:cx="-49.11628"
     sodipodi:cy="8.7530451"
     sodipodi:r1="3.3061433"
     sodipodi:r2="1.6530716"
     sodipodi:arg1="0.52359878"
     sodipodi:arg2="1.5707963"
     inkscape:flatsided="true"
     inkscape:rounded="0"
     inkscape:randomized="0"
     d="m -46.253076,10.406117 -5.726408,0 2.863204,-4.9592152 z"
     transform="matrix(0,1.6766447,-1.6766447,0,87.589746,158.10727)"
     inkscape:transform-center-x="-1.3858058" /><path
     style="fill:#ffffff;stroke:#ffffff;stroke-width:6.55858278;stroke-linecap:round;stroke-linejoin:miter;stroke-miterlimit:4;stroke-opacity:1;stroke-dasharray:none"
     d="m 36.549007,75.756718 33.184404,0"
     id="path4153"
     inkscape:connector-curvature="0" /><path
     style="fill:none;stroke:#ffffff;stroke-width:6.70657921;stroke-linecap:butt;stroke-linejoin:miter;stroke-miterlimit:4;stroke-opacity:1;stroke-dasharray:none"
     d="m 42.379489,75.756718 c 13.605268,0 14.914911,-23.234613 27.517025,-23.291062"
     id="path4155"
     inkscape:connector-curvature="0"
     sodipodi:nodetypes="cc" /><path
     inkscape:transform-center-x="-1.3858058"
     transform="matrix(0,1.6766447,-1.6766447,0,87.589746,135.02497)"
     d="m -46.253076,10.406117 -5.726408,0 2.863204,-4.9592152 z"
     inkscape:randomized="0"
     inkscape:rounded="0"
     inkscape:flatsided="true"
     sodipodi:arg2="1.5707963"
     sodipodi:arg1="0.52359878"
     sodipodi:r2="1.6530716"
     sodipodi:r1="3.3061433"
     sodipodi:cy="8.7530451"
     sodipodi:cx="-49.11628"
     sodipodi:sides="3"
     id="path4176"
     style="fill:#ffffff;fill-opacity:1;stroke:#ffffff"
     sodipodi:type="star" /></svg>