<?xml version="1.0" encoding="UTF-8" standalone="no"?>
<!-- Created with Inkscape (http://www.inkscape.org/) -->

<svg
   xmlns:dc="http://purl.org/dc/elements/1.1/"
   xmlns:cc="http://creativecommons.org/ns#"
   xmlns:rdf="http://www.w3.org/1999/02/22-rdf-syntax-ns#"
   xmlns:svg="http://www.w3.org/2000/svg"
   xmlns="http://www.w3.org/2000/svg"
   xmlns:sodipodi="http://sodipodi.sourceforge.net/DTD/sodipodi-0.dtd"
   xmlns:inkscape="http://www.inkscape.org/namespaces/inkscape"
   width="64px"
   height="64px"
   id="svg4864"
   version="1.1"
   inkscape:version="0.48.4 r9939"
   sodipodi:docname="import_large.svg"
   inkscape:export-filename="C:\Users\wilkie\occam\import_large.png"
   inkscape:export-xdpi="135"
   inkscape:export-ydpi="135">
  <defs
     id="defs4866" />
  <sodipodi:namedview
     id="base"
     pagecolor="#ffffff"
     bordercolor="#666666"
     borderopacity="1.0"
     inkscape:pageopacity="0.0"
     inkscape:pageshadow="2"
     inkscape:zoom="4"
     inkscape:cx="121.12431"
     inkscape:cy="-5.6405482"
     inkscape:current-layer="layer1"
     showgrid="true"
     inkscape:document-units="px"
     inkscape:grid-bbox="true"
     inkscape:window-width="1920"
     inkscape:window-height="1058"
     inkscape:window-x="-8"
     inkscape:window-y="-8"
     inkscape:window-maximized="1" />
  <metadata
     id="metadata4869">
    <rdf:RDF>
      <cc:Work
         rdf:about="">
        <dc:format>image/svg+xml</dc:format>
        <dc:type
           rdf:resource="http://purl.org/dc/dcmitype/StillImage" />
        <dc:title></dc:title>
      </cc:Work>
    </rdf:RDF>
  </metadata>
  <g
     id="layer1"
     inkscape:label="Layer 1"
     inkscape:groupmode="layer">
    <path
       style="fill:#64c4d9;fill-opacity:1;stroke:none"
       d="M 31.96875 1.71875 L 4.09375 15.65625 L 31.96875 29.59375 L 59.875 15.65625 L 31.96875 1.71875 z M 28.3125 5.90625 L 35.6875 5.90625 L 35.6875 16.15625 L 41.0625 16.15625 L 36.53125 20.625 L 32 25.09375 L 27.46875 20.625 L 22.9375 16.15625 L 28.3125 16.15625 L 28.3125 5.90625 z "
       id="rect4892" />
    <rect
       style="fill:#2da0b7;fill-opacity:1;stroke:none"
       id="rect4907"
       width="31.528521"
       height="30.153837"
       x="37.434231"
       y="48.412716"
       transform="matrix(0.8949854,-0.44609543,0,1,0,0)" />
    <rect
       transform="matrix(-0.8949854,-0.44609543,0,1,0,0)"
       y="16.601305"
       x="-34.272831"
       height="30.153837"
       width="31.528521"
       id="rect4938"
       style="fill:#2da0b7;fill-opacity:1;stroke:none" />
  </g>
</svg>
