<?xml version="1.0" encoding="UTF-8" standalone="no"?>
<!-- Created with Inkscape (http://www.inkscape.org/) -->

<svg
   xmlns:dc="http://purl.org/dc/elements/1.1/"
   xmlns:cc="http://creativecommons.org/ns#"
   xmlns:rdf="http://www.w3.org/1999/02/22-rdf-syntax-ns#"
   xmlns:svg="http://www.w3.org/2000/svg"
   xmlns="http://www.w3.org/2000/svg"
   xmlns:sodipodi="http://sodipodi.sourceforge.net/DTD/sodipodi-0.dtd"
   xmlns:inkscape="http://www.inkscape.org/namespaces/inkscape"
   width="640"
   height="640"
   id="svg2"
   version="1.1"
   inkscape:version="0.91 r13725"
   inkscape:export-filename="C:\Users\wilkie\occam\graph_large.png"
   inkscape:export-xdpi="13.438891"
   inkscape:export-ydpi="13.438891"
   sodipodi:docname="repository_large.svg">
  <defs
     id="defs4">
    <inkscape:perspective
       sodipodi:type="inkscape:persp3d"
       inkscape:vp_x="264.60078 : 318.1066 : 1"
       inkscape:vp_y="0 : 1000 : 0"
       inkscape:vp_z="-375.40416 : 318.1066 : 1"
       inkscape:persp3d-origin="-55.40169 : 212.07107 : 1"
       id="perspective3865" />
  </defs>
  <sodipodi:namedview
     id="base"
     pagecolor="#ffffff"
     bordercolor="#666666"
     borderopacity="1.0"
     inkscape:pageopacity="0.0"
     inkscape:pageshadow="2"
     inkscape:zoom="0.65639883"
     inkscape:cx="-175.26174"
     inkscape:cy="311.80961"
     inkscape:document-units="px"
     inkscape:current-layer="layer1"
     showgrid="false"
     fit-margin-top="0"
     fit-margin-left="0"
     fit-margin-right="0"
     fit-margin-bottom="0"
     inkscape:window-width="1920"
     inkscape:window-height="1058"
     inkscape:window-x="-8"
     inkscape:window-y="-8"
     inkscape:window-maximized="1"
     showguides="true"
     inkscape:guide-bbox="true" />
  <metadata
     id="metadata7">
    <rdf:RDF>
      <cc:Work
         rdf:about="">
        <dc:format>image/svg+xml</dc:format>
        <dc:type
           rdf:resource="http://purl.org/dc/dcmitype/StillImage" />
        <dc:title />
      </cc:Work>
    </rdf:RDF>
  </metadata>
  <g
     inkscape:label="Layer 1"
     inkscape:groupmode="layer"
     id="layer1"
     transform="translate(-54.224541,-358.13755)">
    <path
       style="fill:none;stroke:#000000;stroke-width:1px;stroke-linecap:butt;stroke-linejoin:miter;stroke-opacity:1"
       d="m 6480.9133,701.21885 848.1241,124.43984"
       id="path4007"
       inkscape:connector-curvature="0" />
    <path
       inkscape:connector-curvature="0"
       id="path4030"
       d="M 7639.0376,701.21885 6790.9133,825.65869"
       style="fill:none;stroke:#000000;stroke-width:1px;stroke-linecap:butt;stroke-linejoin:miter;stroke-opacity:1" />
    <circle
       cy="761.83545"
       cx="175.57216"
       id="circle4223"
       style="color:#000000;text-decoration:none;text-decoration-line:none;text-decoration-style:solid;text-decoration-color:#000000;clip-rule:nonzero;display:inline;overflow:visible;visibility:visible;opacity:1;isolation:auto;mix-blend-mode:normal;color-interpolation:sRGB;color-interpolation-filters:linearRGB;solid-color:#000000;solid-opacity:1;fill:#2da0b7;fill-opacity:1;fill-rule:evenodd;stroke:none;stroke-width:1;stroke-linecap:round;stroke-linejoin:miter;stroke-miterlimit:4;stroke-dasharray:none;stroke-dashoffset:0;stroke-opacity:1;color-rendering:auto;image-rendering:auto;shape-rendering:auto;text-rendering:auto;enable-background:accumulate"
       r="38.251831" />
    <path
       sodipodi:type="star"
       style="fill:#2da0b7;fill-opacity:1;stroke:none"
       id="path4151"
       sodipodi:sides="3"
       sodipodi:cx="-49.11628"
       sodipodi:cy="8.7530451"
       sodipodi:r1="3.3061433"
       sodipodi:r2="1.6530716"
       sodipodi:arg1="0.52359878"
       sodipodi:arg2="1.5707963"
       inkscape:flatsided="true"
       inkscape:rounded="0"
       inkscape:randomized="0"
       d="m -46.253076,10.406117 -5.726408,0 2.863204,-4.9592152 z"
       transform="matrix(0,21.093249,-21.093249,0,726.02161,1796.361)"
       inkscape:transform-center-x="-17.434313"
       inkscape:transform-center-y="0.00010237926" />
    <path
       style="fill:none;fill-rule:evenodd;stroke:#2da0b7;stroke-width:48.3115387;stroke-linecap:round;stroke-linejoin:miter;stroke-miterlimit:4;stroke-dasharray:none;stroke-opacity:1"
       d="m 267.74281,760.33892 244.19728,0"
       id="path4153"
       inkscape:connector-curvature="0" />
    <path
       style="fill:none;fill-rule:evenodd;stroke:#2da0b7;stroke-width:49.40170288;stroke-linecap:butt;stroke-linejoin:miter;stroke-miterlimit:4;stroke-dasharray:none;stroke-opacity:1"
       d="m 310.64813,760.33892 c 100.11841,0 109.75581,-170.97886 202.4922,-171.39417"
       id="path4155"
       inkscape:connector-curvature="0"
       sodipodi:nodetypes="cc" />
    <path
       inkscape:transform-center-x="-16.291722"
       transform="matrix(0,19.710855,-19.710855,0,713.92146,1560.1019)"
       d="m -46.253076,10.406117 -5.726408,0 2.863204,-4.9592152 z"
       inkscape:randomized="0"
       inkscape:rounded="0"
       inkscape:flatsided="true"
       sodipodi:arg2="1.5707963"
       sodipodi:arg1="0.52359878"
       sodipodi:r2="1.6530716"
       sodipodi:r1="3.3061433"
       sodipodi:cy="8.7530451"
       sodipodi:cx="-49.11628"
       sodipodi:sides="3"
       id="path4176"
       style="fill:#2da0b7;fill-opacity:1;stroke:none"
       sodipodi:type="star"
       inkscape:transform-center-y="2.7346078e-005" />
  </g>
</svg>
