<?xml version="1.0" encoding="UTF-8" standalone="no"?>
<svg
   xmlns:dc="http://purl.org/dc/elements/1.1/"
   xmlns:cc="http://creativecommons.org/ns#"
   xmlns:rdf="http://www.w3.org/1999/02/22-rdf-syntax-ns#"
   xmlns:svg="http://www.w3.org/2000/svg"
   xmlns="http://www.w3.org/2000/svg"
   xmlns:sodipodi="http://sodipodi.sourceforge.net/DTD/sodipodi-0.dtd"
   xmlns:inkscape="http://www.inkscape.org/namespaces/inkscape"
   width="22"
   height="22"
   viewBox="0 0 22 22"
   version="1.1"
   id="svg2"
   inkscape:version="0.91 r13725"
   sodipodi:docname="album.svg"
   inkscape:export-filename="Z:\projects\occam\Large-Icons\group_large.png"
   inkscape:export-xdpi="392.72726"
   inkscape:export-ydpi="392.72726">
  <metadata
     id="metadata14">
    <rdf:RDF>
      <cc:Work
         rdf:about="">
        <dc:format>image/svg+xml</dc:format>
        <dc:type
           rdf:resource="http://purl.org/dc/dcmitype/StillImage" />
        <dc:title>album_collection</dc:title>
      </cc:Work>
    </rdf:RDF>
  </metadata>
  <sodipodi:namedview
     pagecolor="#ffffff"
     bordercolor="#666666"
     borderopacity="1"
     objecttolerance="10"
     gridtolerance="10"
     guidetolerance="10"
     inkscape:pageopacity="0"
     inkscape:pageshadow="2"
     inkscape:window-width="1920"
     inkscape:window-height="1057"
     id="namedview12"
     showgrid="false"
     inkscape:zoom="22.627417"
     inkscape:cx="-3.8135929"
     inkscape:cy="8.749196"
     inkscape:window-x="1912"
     inkscape:window-y="-8"
     inkscape:window-maximized="1"
     inkscape:current-layer="g6299" />
  <title
     id="title4">album_collection</title>
  <description
     id="description6">Created with Sketch (http://www.bohemiancoding.com/sketch)</description>
  <defs
     id="defs8" />
  <g
     id="g6299"
     transform="translate(179.67237,-70.223625)">
    <path
       inkscape:connector-curvature="0"
       style="clip-rule:evenodd;fill-rule:evenodd;fill:#2da0b7;fill-opacity:1"
       d="m -177.13363,87.081419 1.30173,0 0,-11.715588 -1.30173,0 0,11.715588 z m 17.57338,-11.064722 0,10.413856 0.65087,0 0,-10.413856 -0.65087,0 z m -18.87511,10.413856 0.65087,0 0,-10.413856 -0.65087,0 0,10.413856 z m 16.92252,0.650866 1.30173,0 0,-11.715588 -1.30173,0 0,11.715588 z m -13.66819,0.650866 13.01732,0 0,-13.01732 -13.01732,0 0,13.01732 z m 3.97028,-5.011668 c 0.19526,-0.06509 0.39052,-0.06509 0.58578,0 l 0,-3.84011 4.55606,-0.911212 0,4.751322 0,0.130173 c 0,0.06509 0,0.130173 -0.0651,0.130173 -0.13018,0.325433 -0.39052,0.520693 -0.78104,0.650866 -0.58578,0.130174 -1.10647,-0.130173 -1.23665,-0.585779 -0.13017,-0.455606 0.26035,-0.976299 0.78104,-1.106472 0.19526,-0.06509 0.39052,-0.06509 0.58578,0 l 0,-2.733638 -3.18924,0.715953 0,3.709936 c 0,0.06509 0,0.130174 -0.0651,0.130174 -0.13017,0.325433 -0.39052,0.585779 -0.78104,0.650866 -0.58578,0.130173 -1.10647,-0.130174 -1.23664,-0.58578 -0.0651,-0.455606 0.32543,-0.911212 0.84612,-1.106472 z"
       id="path6089" />
  </g>
</svg>
