<?xml version="1.0" encoding="UTF-8" standalone="no"?>
<svg
   xmlns:dc="http://purl.org/dc/elements/1.1/"
   xmlns:cc="http://creativecommons.org/ns#"
   xmlns:rdf="http://www.w3.org/1999/02/22-rdf-syntax-ns#"
   xmlns:svg="http://www.w3.org/2000/svg"
   xmlns="http://www.w3.org/2000/svg"
   xmlns:sodipodi="http://sodipodi.sourceforge.net/DTD/sodipodi-0.dtd"
   xmlns:inkscape="http://www.inkscape.org/namespaces/inkscape"
   width="22"
   height="22"
   viewBox="0 0 22 22"
   version="1.1"
   id="svg2"
   inkscape:version="0.91 r13725"
   sodipodi:docname="configurator_large.svg"
   inkscape:export-filename="Z:\projects\occam\Large-Icons\group_large.png"
   inkscape:export-xdpi="392.72726"
   inkscape:export-ydpi="392.72726">
  <path
     d="M 2.1989394,4.8959711 7.467776,10.220387 10.202235,7.4859265 4.8667051,2.2282056 Q 4.3331521,1.6279585 3.5328223,1.6279585 q -0.8003301,0 -1.3338829,0.6002471 -0.6002471,0.5335531 -0.6002471,1.3338827 0,0.8003297 0.6002471,1.3338828 m 15.7398156,14.3058909 1.533964,1.133803 0.867026,-0.867026 -1.133802,-1.522849 -0.867024,-0.466859 -4.735284,-4.801978 -0.933718,0.933718 4.801978,4.735284 0.46686,0.855907 M 20.873297,6.7522911 Q 21.206767,5.4184083 20.673212,4.0956414 L 17.071731,7.7527037 14.270578,4.9626652 17.872061,1.2944879 Q 16.604871,0.82762907 15.204295,1.0944054 13.803716,1.4278761 12.803308,2.428288 11.802896,3.4287 11.536118,4.8292769 11.202646,6.1520437 11.736202,7.4859265 L 1.5319981,17.679014 q -0.53355275,0.533552 -0.53355275,1.389461 0,0.800329 0.53355275,1.333882 0.600247,0.600247 1.4005771,0.600247 0.8003299,0 1.3338828,-0.600247 l 10.204201,-10.18197 q 2.934542,1.133799 5.135448,-1.0671074 1.000411,-1.0004117 1.26719,-2.4009885 M 3.2660466,17.879095 q 0.3334699,0 0.600247,0.266778 0.5335528,0.522438 0,1.122683 -0.600247,0.533555 -1.1338014,0 -0.6002471,-0.600245 0,-1.122683 0.200083,-0.266778 0.5335544,-0.266778 z"
     id="path4141"
     style="fill:#2da0b7;fill-opacity:1;stroke:none"
     inkscape:connector-curvature="0" />
  <metadata
     id="metadata14">
    <rdf:RDF>
      <cc:Work
         rdf:about="">
        <dc:format>image/svg+xml</dc:format>
        <dc:type
           rdf:resource="http://purl.org/dc/dcmitype/StillImage" />
        <dc:title>album_collection</dc:title>
      </cc:Work>
    </rdf:RDF>
  </metadata>
  <sodipodi:namedview
     pagecolor="#ffffff"
     bordercolor="#666666"
     borderopacity="1"
     objecttolerance="10"
     gridtolerance="10"
     guidetolerance="10"
     inkscape:pageopacity="0"
     inkscape:pageshadow="2"
     inkscape:window-width="1920"
     inkscape:window-height="1176"
     id="namedview12"
     showgrid="false"
     inkscape:zoom="8"
     inkscape:cx="-26.874434"
     inkscape:cy="6.3686191"
     inkscape:window-x="0"
     inkscape:window-y="24"
     inkscape:window-maximized="1"
     inkscape:current-layer="svg2" />
  <title
     id="title4">album_collection</title>
  <description
     id="description6">Created with Sketch (http://www.bohemiancoding.com/sketch)</description>
  <defs
     id="defs8" />
</svg>
