<?xml version="1.0" encoding="UTF-8" standalone="no"?>
<svg
   xmlns:dc="http://purl.org/dc/elements/1.1/"
   xmlns:cc="http://creativecommons.org/ns#"
   xmlns:rdf="http://www.w3.org/1999/02/22-rdf-syntax-ns#"
   xmlns:svg="http://www.w3.org/2000/svg"
   xmlns="http://www.w3.org/2000/svg"
   xmlns:sodipodi="http://sodipodi.sourceforge.net/DTD/sodipodi-0.dtd"
   xmlns:inkscape="http://www.inkscape.org/namespaces/inkscape"
   width="23.466667"
   height="23.466667"
   viewBox="0 0 22 22"
   version="1.1"
   id="svg2"
   inkscape:version="0.92.1 r"
   sodipodi:docname="perl-module.svg"
   inkscape:export-filename="Z:\projects\occam\Large-Icons\group_large.png"
   inkscape:export-xdpi="392.72726"
   inkscape:export-ydpi="392.72726">
  <metadata
     id="metadata14">
    <rdf:RDF>
      <cc:Work
         rdf:about="">
        <dc:format>image/svg+xml</dc:format>
        <dc:type
           rdf:resource="http://purl.org/dc/dcmitype/StillImage" />
        <dc:title>album_collection</dc:title>
      </cc:Work>
    </rdf:RDF>
  </metadata>
  <sodipodi:namedview
     pagecolor="#ffffff"
     bordercolor="#666666"
     borderopacity="1"
     objecttolerance="10"
     gridtolerance="10"
     guidetolerance="10"
     inkscape:pageopacity="0"
     inkscape:pageshadow="2"
     inkscape:window-width="1920"
     inkscape:window-height="1172"
     id="namedview12"
     showgrid="false"
     inkscape:zoom="5.6568542"
     inkscape:cx="-9.5101279"
     inkscape:cy="14.831447"
     inkscape:window-x="1920"
     inkscape:window-y="0"
     inkscape:window-maximized="1"
     inkscape:current-layer="g6299" />
  <title
     id="title4">album_collection</title>
  <description
     id="description6">Created with Sketch (http://www.bohemiancoding.com/sketch)</description>
  <defs
     id="defs8" />
  <g
     id="g6299"
     transform="translate(179.67237,-70.223625)">
    <path
       inkscape:connector-curvature="0"
       style="opacity:1;fill:#2da0b7;fill-opacity:1;stroke:none;stroke-width:0.06281605;stroke-linecap:butt;stroke-linejoin:miter;stroke-miterlimit:4;stroke-dasharray:none;stroke-opacity:1"
       d="m -174.36132,73.674405 0.002,0.0013 c -0.50387,0.0024 -0.56949,0.268201 -0.79944,0.435508 -0.18521,-0.07841 -0.31264,-0.302809 -0.60411,-0.115246 l -0.0183,0.543471 0.40881,0.486452 V 76.017 c 0.0249,0.16878 0.11066,0.298648 0.25354,0.389404 0.0723,0.414969 0.002,0.830889 -0.0582,1.245858 0.0516,0.24876 0.0694,0.491019 0.21229,0.758188 0.0516,0.158222 0.14358,0.308759 0.29235,0.447632 0.11128,0.248463 0.23925,0.724636 0.37,1.243437 0.27661,0.499714 0.5453,1.010097 1.08815,1.129399 0.26377,0.14601 0.63473,0.120683 0.99233,0.116458 l 0.23413,-0.03882 c 0.10281,0.04627 0.16823,0.129427 0.19288,0.253537 -0.14203,0.763269 1.04517,2.280432 0.93531,3.909831 0.007,0.88177 0.56887,1.09065 -0.0983,2.702794 l -0.0776,0.40882 c -0.12678,-0.03894 -0.19859,0.108179 -0.28993,0.194096 0.0249,0.09273 -0.0175,0.214171 0.13465,0.253537 l 0.40882,0.213506 c 0.24627,-0.07535 0.40987,0.07064 0.6029,0.137079 0.13944,0.0282 0.19118,-0.03254 0.23413,-0.09947 0.0388,-0.210574 -0.002,-0.410409 -0.27295,-0.58229 l 0.19531,-0.292361 V 88.11649 l 0.28993,-2.95633 v -0.36999 l -0.28993,-1.828147 -0.23412,-0.875863 0.11645,-0.214717 0.25354,0.214717 0.2317,0.408813 0.19532,2.587554 0.0388,0.174686 -0.097,0.272946 0.33118,0.679339 c 0.20564,0.910148 0.18462,1.639846 -0.0983,2.159322 -0.0462,0.211985 0.11452,0.49844 -0.17468,0.623538 l 0.0194,0.328753 0.2135,0.157699 c 0.20471,0.111273 0.33783,0.07478 0.48767,0.07643 0.19438,-0.132166 0.38782,-0.07675 0.58229,-0.115247 l 0.0582,-0.253536 c 0.0493,-0.06596 -0.21026,-0.397156 -0.2511,-0.369995 -0.0453,0.03124 0.10249,-0.43895 0.0764,-0.44764 -0.22888,-0.96339 -0.2594,-1.799433 0,-2.450467 -0.0601,-0.185922 0.002,-0.35746 0.11646,-0.524061 -0.11785,-0.906813 -0.19027,-1.817905 -0.0183,-2.744042 v -0.486454 c 0.0622,-0.124184 0.19384,-0.04273 0.31177,0 0.13568,-0.200712 0.31072,-0.26458 0.50466,-0.270524 l 0.17469,-0.09947 c 0.33475,-0.270952 0.8451,-0.336766 1.28467,-0.485241 0.14154,-0.171371 0.24643,-0.235016 0.34937,-0.291145 l 0.0582,0.349372 c 0.24377,0.191558 0.30813,0.414443 0.44765,0.623533 0.21198,0.09883 0.26953,0.37305 0.35059,0.621109 l 0.3894,0.272952 0.25233,0.991104 0.17589,0.272946 -0.0388,0.116458 0.11645,0.194097 -0.0388,0.292362 -0.0194,0.234128 v 0.795776 l 0.0776,0.156488 -0.1565,1.265267 c -0.0908,0.305971 -0.14378,0.652016 -0.48645,0.679339 l -0.0582,0.137079 0.0388,0.174686 v 0.116458 l -0.30933,0.09705 -0.0607,0.175905 c 0.0311,0.0831 0.0793,0.121545 0.13709,0.135868 l 0.15528,-0.01938 0.11646,0.01938 0.0789,0.134651 c 0.17136,0.08427 0.29442,0.04099 0.427,0.01938 l 0.23413,0.05944 0.17347,-0.05944 c 0.0359,-0.03497 0.0217,-0.184327 0.0194,-0.310554 l -0.0582,-0.214719 c 0.1249,-0.0094 0.26958,-0.124885 0.37001,0 l -0.0971,-0.389403 v -0.231705 l 0.0583,-0.156489 0.0776,-1.01173 0.0243,-0.186817 0.23291,0.633239 -0.17225,0.275374 0.13464,0.291145 -0.21228,0.269308 0.24625,0.40518 0.48281,0.03273 0.53983,-0.224419 0.15651,-0.393049 -0.25841,-0.325114 0.20259,-0.04491 -0.25839,-0.437932 c -0.63971,-1.131866 -0.7093,-2.342463 -0.94864,-3.633246 l 0.23776,-1.211889 0.27295,-2.432276 -0.0183,-0.817628 c -0.18193,-0.567016 -0.51249,-0.909992 -0.91468,-1.14638 -0.41443,-0.813343 -0.95946,-0.912161 -1.47878,-1.14881 -0.63893,-0.843391 -0.96244,-1.933351 -2.3146,-2.21634 -0.37136,0.08873 -0.76136,0.225803 -1.45814,1.128182 -2.22246,0.05304 -2.90144,1.03345 -3.26932,2.33401 l -0.28994,0.292361 -0.33117,-0.175904 c -0.28065,-0.305336 -0.33236,-0.685442 -0.40881,-1.031134 l 0.097,-0.154067 -0.15528,-0.195306 c 0.0437,-0.219258 0.0729,-0.441764 0.0193,-0.68055 l -0.29235,-0.701175 0.35059,-0.446423 0.0182,-0.662357 c -0.11691,-0.09977 -0.23391,-0.11542 -0.35058,-0.01938 l -0.17348,0.214724 c -0.13404,0.02509 -0.2276,-0.152414 -0.62354,-0.44764 -0.12723,-0.01876 -0.23562,-0.02788 -0.32875,-0.02788 z m -0.057,0.847964 c -0.0249,0.311579 0.23763,0.335771 0.53984,0.320256 -0.34288,0.107285 -0.71182,0.128849 -1.10999,0.04249 0.39976,-0.01876 0.47275,0.0013 0.57015,-0.362715 z m 10.52975,4.151238 c -0.23625,1.281099 -0.87885,1.746454 -1.49333,2.270929 0.66638,-0.63476 1.25273,-1.326533 1.49333,-2.270929 z m -0.87829,0.362715 c -0.37635,1.047786 -0.77221,1.104971 -1.8051,1.072389 0.78649,-0.0385 1.45631,-0.276562 1.8051,-1.072389 z m -6.28509,0.941371 -0.28022,0.966843 0.0752,-0.673275 c 0,0 0.132,-0.190793 0.20501,-0.293568 z m 6.64173,1.204611 0.0776,1.420544 c 0,0 -0.20674,-1.058773 -0.0776,-1.420544 z"
       id="path8415" />
  </g>
</svg>
